Sample,AuL,BiL,NbK,Au.nmolmm2,Bi.nmolmm2,Nb.nmolmm2,total.nmolmm2,Bi.AtFrac,Nb.AtFrac,x.mm,y.mm,cornell.x,cornell.y
766,10.16053,255.3333,113.4,0.053860808,1.423436797,1.538219898,2.961656695,0.481,0.519,36.059,6.435,-13.941,-40.865
775,9.79961,218.2,130.9333,0.051947577,1.21642539,1.776051211,2.992476602,0.406,0.594,40.631,6.435,-9.369,-40.865
784,10.43603,198.2,138.5667,0.055321229,1.104929021,1.879594842,2.984523863,0.37,0.63,45.203,6.435,-4.797,-40.865
793,336.4093,155.6333,143.0667,1.783300342,0.867627396,1.940635314,2.80826271,0.309,0.691,49.775,6.435,-0.225,-40.865
802,10.61003,150.7333,161.4333,0.0562436,0.840310785,2.189769967,3.030080752,0.277,0.723,54.347,6.435,4.347,-40.865
811,11.07802,142.1667,174.2667,0.058724408,0.792553545,2.363849254,3.1564028,0.251,0.749,58.919,6.435,8.919,-40.865
820,10.41414,124.1667,194.2,0.05520519,0.692206813,2.634235486,3.326442299,0.208,0.792,63.491,6.435,13.491,-40.865
1014,416.1756,157.7333,151.0333,2.206140229,0.879334514,2.048698653,2.928033168,0.3,0.7,49.775,7.451,-0.225,-39.849
1828,11.87631,368.9,94.36667,0.06295613,2.056550534,1.280041353,3.336591888,0.616,0.384,27.423,11.007,-22.577,-36.293
1837,9.8166,323.9,111.8,0.05203764,1.805683703,1.516516619,3.322200322,0.544,0.456,31.995,11.007,-18.005,-36.293
1845,11.42423,274.5333,113.2333,0.060559661,1.530473312,1.535958687,3.066431999,0.499,0.501,36.059,11.007,-13.941,-36.293
1854,9.96281,240.5667,131.2,0.052812697,1.341115683,1.779668876,3.120784559,0.43,0.57,40.631,11.007,-9.369,-36.293
1863,9.00111,208.4667,146.5333,0.047714741,1.16216401,1.987658181,3.149822191,0.369,0.631,45.203,11.007,-4.797,-36.293
1872,8.53806,185.0667,153.4,0.04526012,1.031713258,2.080801872,3.11251513,0.331,0.669,49.775,11.007,-0.225,-36.293
1881,12.24188,160.3333,173.9333,0.064894011,0.893829042,2.359326834,3.253155876,0.275,0.725,54.347,11.007,4.347,-36.293
1890,9.21084,145.5333,190.3333,0.048826516,0.811321729,2.581785443,3.393107172,0.239,0.761,58.919,11.007,8.919,-36.293
1899,9.413,131.5667,207.7,0.049898163,0.733460469,2.817356903,3.550817372,0.207,0.793,63.491,11.007,13.491,-36.293
1907,12.41455,121.5,222.4667,0.065809332,0.677340444,3.017660534,3.695000978,0.183,0.817,67.555,11.007,17.555,-36.293
1916,9.01667,107.8333,255.3667,0.047797224,0.601151073,3.463934208,4.06508528,0.148,0.852,72.127,11.007,22.127,-36.293
3078,11.19868,439.8,78.7,0.059364024,2.451805164,1.067530035,3.519335199,0.697,0.303,22.851,15.579,-27.149,-31.721
3087,9.33676,409.1,95.9,0.049494016,2.280658237,1.300840284,3.581498521,0.637,0.363,27.423,15.579,-22.577,-31.721
3096,7.91039,364.1,116.0333,0.041932851,2.029791405,1.573939426,3.603730831,0.563,0.437,31.995,15.579,-18.005,-31.721
3104,9.88569,308.2,120.7333,0.052403885,1.718159053,1.637692808,3.35585186,0.512,0.488,36.059,15.579,-13.941,-31.721
3113,9.36095,252.6,139.9667,0.049622247,1.408199146,1.898585211,3.306784357,0.426,0.574,40.631,15.579,-9.369,-31.721
3122,10.33233,222.1333,146.0333,0.054771517,1.238352824,1.980875907,3.21922873,0.385,0.615,45.203,15.579,-4.797,-31.721
3131,10.50228,200.9,162.5,0.055672419,1.119981031,2.204239271,3.324220302,0.337,0.663,49.775,15.579,-0.225,-31.721
3140,10.63966,174.7333,176.0333,0.056400668,0.974106428,2.387812387,3.361918816,0.29,0.71,54.347,15.579,4.347,-31.721
3149,12.17638,152.8333,196.9,0.064546796,0.852017904,2.67085977,3.522877673,0.242,0.758,58.919,15.579,8.919,-31.721
3158,12.37768,144.4,221.3333,0.065613885,0.805003787,3.002286474,3.807290261,0.211,0.789,63.491,15.579,13.491,-31.721
3166,10.31346,128.5667,249.4333,0.054671487,0.716736014,3.383450311,4.100186325,0.175,0.825,67.555,15.579,17.555,-31.721
3175,10.54953,110.8333,279.6333,0.055922891,0.617875528,3.793099701,4.410975229,0.14,0.86,72.127,15.579,22.127,-31.721
3184,12.38375,105.1333,314.6333,0.065646062,0.586099063,4.267858929,4.853957992,0.121,0.879,76.699,15.579,26.699,-31.721
3518,401.1589,481.2333,64.73333,2.126536941,2.68278829,0.87807845,3.56086674,0.753,0.247,17.771,17.103,-32.229,-30.197
3644,432.3209,80.73333,364.2667,2.291726207,0.450073659,4.941113633,5.391187293,0.083,0.917,81.779,17.103,31.779,-30.197
4461,9.7516,528.7333,73.4,0.051693076,2.947592167,0.995637923,3.94323009,0.748,0.252,18.279,20.151,-31.721,-27.149
4470,7.4602,473.1333,75.13333,0.039546401,2.63763226,1.019149764,3.656782024,0.721,0.279,22.851,20.151,-27.149,-27.149
4479,7.7327,435.4,97.76667,0.04099092,2.427275962,1.326160821,3.753436784,0.647,0.353,27.423,20.151,-22.577,-27.149
4488,7.00651,389.1667,116.1667,0.037141398,2.169533708,1.575748936,3.745282644,0.579,0.421,31.995,20.151,-18.005,-27.149
4496,8.28416,318.1333,129.7333,0.0439142,1.773535397,1.759773752,3.533309149,0.502,0.498,36.059,20.151,-13.941,-27.149
4505,6.95826,270,150,0.036885625,1.505200987,2.034682404,3.539883392,0.425,0.575,40.631,20.151,-9.369,-27.149
4514,10.53028,235.3667,159.5667,0.055820847,1.312126627,2.164450379,3.476577006,0.377,0.623,45.203,20.151,-4.797,-27.149
4523,8.83545,203.8735,182.0394,0.04683658,1.136557754,2.469282427,3.605840181,0.315,0.685,49.775,20.151,-0.225,-27.149
4532,10.1389,179.6333,198.9333,0.053746147,1.001423039,2.698440568,3.699863607,0.271,0.729,54.347,20.151,4.347,-27.149
4541,9.74117,164.9333,215.4667,0.051637787,0.919473207,2.922708688,3.842181896,0.239,0.761,58.919,20.151,8.919,-27.149
4550,14.04422,145.2333,251.0667,0.074448187,0.809649283,3.405606646,4.215255929,0.192,0.808,63.491,20.151,13.491,-27.149
4558,12.44592,134.2333,289.4,0.065975624,0.74832628,3.925580586,4.673906866,0.16,0.84,67.555,20.151,17.555,-27.149
4567,10.91494,118.9667,313.7,0.057859923,0.663217757,4.255199135,4.918416892,0.135,0.865,72.127,20.151,22.127,-27.149
4576,11.98424,101.9667,353.6667,0.063528265,0.568445843,4.79732941,5.365775253,0.106,0.894,76.699,20.151,26.699,-27.149
4585,9.6192,91.46667,384.9333,0.050991226,0.509910081,5.221446749,5.731356831,0.089,0.911,81.271,20.151,31.271,-27.149
5952,11.06695,645.1,60.46667,0.058665726,3.596315396,0.82020313,4.416518526,0.814,0.186,13.707,24.723,-36.293,-22.577
5961,9.97877,568.6,66.5,0.052897301,3.169841783,0.902042533,4.071884315,0.778,0.222,18.279,24.723,-31.721,-22.577
5970,7.5554,504.2,87.56667,0.040051055,2.810823473,1.187802418,3.998625891,0.703,0.297,22.851,24.723,-27.149,-22.577
5979,7.39408,469.6,101.7333,0.0391959,2.617934754,1.37996637,3.997901124,0.655,0.345,27.423,24.723,-22.577,-22.577
5988,7.47007,409.3,115.2333,0.039598722,2.2817732,1.563087786,3.844860986,0.593,0.407,31.995,24.723,-18.005,-22.577
5996,8.44578,350.7667,132.0667,0.044770945,1.955460678,1.791425271,3.74688595,0.522,0.478,36.059,24.723,-13.941,-22.577
6005,9.49004,280.1,161.1,0.050306551,1.561506654,2.185248902,3.746755556,0.417,0.583,40.631,24.723,-9.369,-22.577
6014,9.69571,243.3667,166.2667,0.051396804,1.356725174,2.25533286,3.612058034,0.376,0.624,45.203,24.723,-4.797,-22.577
6023,13.10168,204.7667,180.7333,0.069451797,1.141537181,2.451565769,3.593102951,0.318,0.682,49.775,24.723,-0.225,-22.577
6032,11.36961,196.6333,210.4,0.060270122,1.096194953,2.853981186,3.950176139,0.278,0.722,54.347,24.723,4.347,-22.577
6041,10.27398,168.3333,239.1667,0.054462204,0.93842759,3.244188508,4.182616098,0.224,0.776,58.919,24.723,8.919,-22.577
6050,10.21049,147.7667,273.1333,0.054125645,0.823772529,3.704930131,4.528702659,0.182,0.818,63.491,24.723,13.491,-22.577
6058,11.17879,137.2,301.8667,0.059258588,0.764865094,4.094685753,4.859550847,0.157,0.843,67.555,24.723,17.555,-22.577
6067,9.64739,124.7333,348.3,0.051140661,0.695365505,4.724532543,5.419898048,0.128,0.872,72.127,24.723,22.127,-22.577
6076,13.21618,110.9667,401.8667,0.07005876,0.618619209,5.45114069,6.069759898,0.102,0.898,76.699,24.723,26.699,-22.577
6085,10.08457,99.8,438,0.053458145,0.556366883,5.941272621,6.497639504,0.086,0.914,81.271,24.723,31.271,-22.577
7526,11.54357,796.3333,54.3,0.061192281,4.43941359,0.73655503,5.175968621,0.858,0.142,9.135,29.295,-40.865,-18.005
7535,8.19174,700.3666,75.63333,0.043424283,3.904416658,1.025932038,4.930348697,0.792,0.208,13.707,29.295,-36.293,-18.005
7544,10.1382,615.4333,78.9,0.053742437,3.430928929,1.070242945,4.501171873,0.762,0.238,18.279,29.295,-31.721,-18.005
7553,11.55088,533.4,80.36667,0.061231031,2.973608173,1.090137662,4.063745835,0.732,0.268,22.851,29.295,-27.149,-18.005
7562,7.4915,486.3,112,0.039712322,2.711034223,1.519229529,4.230263751,0.641,0.359,27.423,29.295,-22.577,-18.005
7571,10.1338,428.2667,128.4,0.053719112,2.38750911,1.741688138,4.129197248,0.578,0.422,31.995,29.295,-18.005,-18.005
7579,8.67772,359.8,141.7667,0.046000456,2.005819686,1.9230014,3.928821086,0.511,0.489,36.059,29.295,-13.941,-18.005
7588,10.18709,299.1667,159.1667,0.054001602,1.667800045,2.159024559,3.826824604,0.436,0.564,40.631,29.295,-9.369,-18.005
7597,10.52774,251.8333,165.4,0.055807382,1.403924933,2.243576465,3.647501397,0.385,0.615,45.203,29.295,-4.797,-18.005
7606,6.86527,224.7,199.5667,0.036392687,1.252661711,2.707032353,3.959694064,0.316,0.684,49.775,29.295,-0.225,-18.005
7615,11.13559,201.0333,221.0333,0.059029585,1.120724154,2.998217109,4.118941263,0.272,0.728,54.347,29.295,4.347,-18.005
7624,9.40561,179.3667,256.5667,0.049858989,0.999936792,3.480211667,4.480148459,0.223,0.777,58.919,29.295,8.919,-18.005
7633,9.40859,160.0667,288.1333,0.049874786,0.892342796,3.908398371,4.800741167,0.186,0.814,63.491,29.295,13.491,-18.005
7641,10.74489,140.8667,324.9333,0.056958491,0.785306281,4.407573788,5.192880069,0.151,0.849,67.555,29.295,17.555,-18.005
7650,8.21378,126.4667,385.3667,0.043541117,0.705028895,5.227325625,5.93235452,0.119,0.881,72.127,29.295,22.127,-18.005
7659,13.08201,116.4,432.8333,0.069347527,0.64890887,5.871188664,6.520097534,0.1,0.9,76.699,29.295,26.699,-18.005
7668,15.11742,102.9667,491.3,0.080137203,0.574020661,6.664263102,7.238283763,0.079,0.921,81.271,29.295,31.271,-18.005
7677,7.81855,95.66666,549.8333,0.041446009,0.533324263,7.458240939,7.991565203,0.067,0.933,85.843,29.295,35.843,-18.005
8985,12.7698,842.2667,51.3,0.067692506,4.695483957,0.695861382,5.391345339,0.871,0.129,9.135,33.359,-40.865,-13.941
8994,10.08677,732.5,61.9,0.053469807,4.08355453,0.839645606,4.923200136,0.829,0.171,13.707,33.359,-36.293,-13.941
9003,6.23503,635.9667,69.23333,0.033051795,3.545398906,0.939118922,4.484517829,0.791,0.209,18.279,33.359,-31.721,-13.941
9012,9.51461,552.4,82.33334,0.050436796,3.079529724,1.116814655,4.196344378,0.734,0.266,22.851,33.359,-27.149,-13.941
9021,9.55608,499.7667,116,0.050656628,2.786108631,1.573487726,4.359596357,0.639,0.361,27.423,33.359,-22.577,-13.941
9030,9.06477,443.5333,117.7,0.048052201,2.472617633,1.59654746,4.069165094,0.608,0.392,31.995,33.359,-18.005,-13.941
9038,12.90917,371.9333,148.5333,0.068431305,2.073460631,2.01478728,4.088247911,0.507,0.493,36.059,33.359,-13.941,-13.941
9047,8.35416,296.5333,161.4333,0.044285269,1.653119318,2.189769967,3.842889285,0.43,0.57,40.631,33.359,-9.369,-13.941
9056,11.25958,261.4667,184.1333,0.059686854,1.457629389,2.497685237,3.955314626,0.369,0.631,45.203,33.359,-4.797,-13.941
9065,12.63143,227.9333,204.7333,0.066959009,1.270686771,2.777114954,4.047801725,0.314,0.686,49.775,33.359,-0.225,-13.941
9074,14.73581,199.6,233.4667,0.078114294,1.112733767,3.166870577,4.279604344,0.26,0.74,54.347,33.359,4.347,-13.941
9083,10.60571,178.6667,269.5,0.0562207,0.996034419,3.655646053,4.651680473,0.214,0.786,58.919,33.359,8.919,-13.941
9092,13.84158,162.3,307.3,0.073373995,0.904793038,4.168386019,5.073179057,0.178,0.822,63.491,33.359,13.491,-13.941
9100,10.47734,146.6,340.5667,0.055540213,0.817268388,4.619633814,5.436902201,0.15,0.85,67.555,33.359,17.555,-13.941
9109,13.61331,129.5333,410.4,0.07216394,0.722124633,5.566891059,6.289015692,0.115,0.885,72.127,33.359,22.127,-13.941
9118,11.14913,113.4333,456.3,0.059101361,0.632370056,6.189503874,6.82187393,0.093,0.907,76.699,33.359,26.699,-13.941
9127,12.95026,106.1667,535.4667,0.068649122,0.59186008,7.263364484,7.855224565,0.075,0.925,81.271,33.359,31.271,-13.941
9136,9.8188,94,595.4,0.052049302,0.524032936,8.076332691,8.600365627,0.061,0.939,85.843,33.359,35.843,-13.941
10650,8.49756,878.3333,61.5,0.04504543,4.896548705,0.834219786,5.730768491,0.854,0.146,9.135,37.931,-40.865,-9.369
10659,7.54858,763.9333,64.56667,0.040014902,4.258789472,0.875817782,5.134607254,0.829,0.171,13.707,37.931,-36.293,-9.369
10668,12.3661,650.5667,81.86667,0.065552499,3.626791256,1.110484486,4.737275742,0.766,0.234,18.279,37.931,-31.721,-9.369
10677,9.74522,570.0333,81.2,0.051659256,3.17783217,1.101441408,4.279273578,0.743,0.257,22.851,37.931,-27.149,-9.369
10686,8.92154,507.6,107.9,0.047292941,2.829777856,1.463614876,4.293392732,0.659,0.341,27.423,37.931,-22.577,-9.369
10695,8.39625,455.5333,121.0333,0.044508388,2.539515455,1.641762172,4.181277628,0.607,0.393,31.995,37.931,-18.005,-9.369
10703,9.04101,381.6,154.0333,0.04792625,2.127350729,2.089392301,4.21674303,0.505,0.495,36.059,37.931,-13.941,-9.369
10712,12.01918,307.2333,167.7333,0.063713482,1.712769876,2.275226628,3.987996504,0.429,0.571,40.631,37.931,-9.369,-9.369
10721,12.09325,259.3333,183.9,0.064106126,1.445736071,2.494520628,3.940256699,0.367,0.633,45.203,37.931,-4.797,-9.369
10730,12.3649,227.0667,214.4667,0.065546138,1.265855633,2.909144139,4.174999772,0.303,0.697,49.775,37.931,-0.225,-9.369
10739,10.10148,206.0667,244,0.053547785,1.148784445,3.309750045,4.45853449,0.258,0.742,54.347,37.931,4.347,-9.369
10748,12.77232,179.0667,270,0.067705865,0.998264347,3.662428328,4.660692675,0.214,0.786,58.919,37.931,8.919,-9.369
10757,11.84121,164.7,327.0333,0.062770066,0.918172602,4.436059341,5.354231943,0.171,0.829,63.491,37.931,13.491,-9.369
10765,9.71106,144.0667,370.9,0.051478174,0.8031457,5.031091359,5.834237059,0.138,0.862,67.555,37.931,17.555,-9.369
10774,15.27921,134.5,414.7,0.080994849,0.749813084,5.625218621,6.375031705,0.118,0.882,72.127,37.931,22.127,-9.369
10783,12.91457,121.4,492.1,0.06845993,0.676782962,6.675114742,7.351897704,0.092,0.908,76.699,37.931,26.699,-9.369
10792,10.71622,110.7333,565.1667,0.056806512,0.617318046,7.666231601,8.283549647,0.075,0.925,81.271,37.931,31.271,-9.369
10801,16.3183,97.26667,650.3666,0.086503048,0.542244029,8.82192985,9.364173878,0.058,0.942,85.843,37.931,35.843,-9.369
10810,13.68647,87.53333,758.0667,0.07255176,0.487982425,10.28283317,10.7708156,0.045,0.955,90.415,37.931,40.415,-9.369
12315,7.76576,868.4667,61.96667,0.04116617,4.841544201,0.840549954,5.682094155,0.852,0.148,9.135,42.503,-40.865,-4.797
12324,8.8496,757.3666,72.96667,0.046911589,4.222181311,0.989759997,5.211941308,0.81,0.19,13.707,42.503,-36.293,-4.797
12333,8.13283,650.1667,87.9,0.043112002,3.624561329,1.192323889,4.816885218,0.752,0.248,18.279,42.503,-31.721,-4.797
12342,7.34599,565.0667,88.23333,0.038940976,3.150144277,1.19684536,4.346989637,0.725,0.275,22.851,42.503,-27.149,-4.797
12351,8.92177,506.1,108.4,0.047294161,2.821415628,1.470397151,4.291812779,0.657,0.343,27.423,42.503,-22.577,-4.797
12360,8.56391,449.1333,144.3,0.045397151,2.503836617,1.957364473,4.46120109,0.561,0.439,31.995,42.503,-18.005,-4.797
12368,12.17393,384.3,159.2333,0.064533809,2.142402739,2.159927958,4.302330697,0.498,0.502,36.059,42.503,-13.941,-4.797
12377,12.85213,309.6667,159.3667,0.068128936,1.726335639,2.161737469,3.888073108,0.444,0.556,40.631,42.503,-9.369,-4.797
12386,12.75969,260.8,200.4,0.067638914,1.453912657,2.718335692,4.17224835,0.348,0.652,45.203,42.503,-4.797,-4.797
12395,8.86556,222.8,217.4667,0.046996192,1.242069555,2.949837787,4.191907342,0.296,0.704,49.775,42.503,-0.225,-4.797
12404,13.16789,207.7333,258.0667,0.069802775,1.158075438,3.500558491,4.658633929,0.249,0.751,54.347,42.503,4.347,-4.797
12413,10.10485,184.3,294.6,0.053565649,1.027439044,3.996116242,5.023555287,0.205,0.795,58.919,42.503,8.919,-4.797
12422,10.74112,165.2667,331.1667,0.056938506,0.921331852,4.49212705,5.413458901,0.17,0.83,63.491,42.503,13.491,-4.797
12430,9.50998,151.1,378.2667,0.050412253,0.842355071,5.131017325,5.973372396,0.141,0.859,67.555,42.503,17.555,-4.797
12439,10.81237,135.6,442.5,0.057316201,0.755945385,6.002313093,6.758258478,0.112,0.888,72.127,42.503,22.127,-4.797
12448,9.64786,121.6667,509.8333,0.051143152,0.678269767,6.915658965,7.593928731,0.089,0.911,76.699,42.503,26.699,-4.797
12457,10.38384,104.5333,609.1,0.05504457,0.582754172,8.262167017,8.844921189,0.066,0.934,81.271,42.503,31.271,-4.797
12466,11.38466,99.23333,707.0333,0.060349901,0.553207801,9.590588099,10.1437959,0.055,0.945,85.843,42.503,35.843,-4.797
12475,14.08597,90.76667,807.3,0.074669503,0.506007708,10.9506607,11.45666841,0.044,0.956,90.415,42.503,40.415,-4.797
13980,415.7369,839.2333,62.1,2.203814687,4.678573303,0.842358515,5.520931818,0.847,0.153,9.135,47.075,-40.865,-0.225
13982,252.8066,819.7333,59.23333,1.340123761,4.569864342,0.803473429,5.373337771,0.85,0.15,10.151,47.075,-39.849,-0.225
13989,9.31916,738.6,78.93333,0.049400719,4.117560923,1.070695051,5.188255974,0.794,0.206,13.707,47.075,-36.293,-0.225
13998,6.73443,639.8666,80.46667,0.035699106,3.567140141,1.091494117,4.658634258,0.766,0.234,18.279,47.075,-31.721,-0.225
14007,6.01296,563.1,92.2,0.031874605,3.139180281,1.250651451,4.389831732,0.715,0.285,22.851,47.075,-27.149,-0.225
14016,7.75665,496.0667,109.3,0.041117878,2.765481802,1.482605245,4.248087048,0.651,0.349,27.423,47.075,-22.577,-0.225
14025,9.09946,436.7479,128.771,0.048236093,2.43479026,1.746720586,4.181510846,0.582,0.418,31.995,47.075,-18.005,-0.225
14033,9.47609,370.3,151.2,0.050232602,2.06435528,2.050959864,4.115315144,0.502,0.498,36.059,47.075,-13.941,-0.225
14042,8.62054,298.4333,176.6667,0.045697345,1.663711473,2.396404173,4.060115646,0.41,0.59,40.631,47.075,-9.369,-0.225
14051,11.52666,258.8,195.6667,0.061102641,1.44276302,2.654130611,4.096893631,0.352,0.648,45.203,47.075,-4.797,-0.225
14060,434.3665,216.6667,220.6667,2.3025699,1.207877521,2.993244345,4.201121866,0.288,0.712,49.775,47.075,-0.225,-0.225
14069,11.60071,211.0333,256.3,0.061495179,1.176472339,3.476594002,4.653066341,0.253,0.747,54.347,47.075,4.347,-0.225
14078,8.57194,181.5333,291.0333,0.045439717,1.012015194,3.947735564,4.959750758,0.204,0.796,58.919,47.075,8.919,-0.225
14087,11.17425,166.6,346.5,0.059234521,0.928764757,4.700116354,5.628881112,0.165,0.835,63.491,47.075,13.491,-0.225
14095,10.04492,140.7,394.6333,0.053247961,0.784376959,5.353022878,6.137399837,0.128,0.872,67.555,47.075,17.555,-0.225
14104,10.37922,134.4,453.0333,0.05502008,0.749255603,6.145192561,6.894448164,0.109,0.891,72.127,47.075,22.127,-0.225
14113,9.44732,125.1667,525.3666,0.050080093,0.697781631,7.126361179,7.824142811,0.089,0.911,76.699,47.075,26.699,-0.225
14122,10.7498,109.1333,611.1,0.056984519,0.608398337,8.289296116,8.897694452,0.068,0.932,81.271,47.075,31.271,-0.225
14131,10.88594,90.93333,714.3,0.057706195,0.506936808,9.68915761,10.19609442,0.05,0.95,85.843,47.075,35.843,-0.225
14139,412.1213,77.76667,830.6334,2.184648449,0.433535068,11.26716776,11.70070283,0.037,0.963,89.907,47.075,39.907,-0.225
14140,208.5197,88,823.4333,1.105359609,0.490584025,11.16950165,11.66008567,0.042,0.958,90.415,47.075,40.415,-0.225
15645,8.50802,810.6667,59.76667,0.045100879,4.519319693,0.810707945,5.330027639,0.848,0.152,9.135,51.647,-40.865,4.347
15654,6.62247,717.2333,70.06667,0.035105608,3.998445449,0.950422804,4.948868253,0.808,0.192,13.707,51.647,-36.293,4.347
15663,7.40422,619.6,82.83334,0.039249652,3.454157525,1.123596929,4.577754454,0.755,0.245,18.279,51.647,-31.721,4.347
15672,6.71708,536.4333,96.7,0.035607134,2.990518269,1.311691923,4.302210193,0.695,0.305,22.851,51.647,-27.149,4.347
15681,8.62448,488.5333,110.6,0.045718231,2.723484465,1.50023916,4.223723624,0.645,0.355,27.423,51.647,-22.577,4.347
15690,9.56761,425.1667,132.9667,0.050717748,2.370227173,1.803633366,4.173860538,0.568,0.432,31.995,51.647,-18.005,4.347
15698,11.94635,349.645,158.1719,0.063327411,1.949207404,2.145530545,4.09473795,0.476,0.524,36.059,51.647,-13.941,4.347
15707,10.45505,290.7667,181.4,0.055422054,1.62097157,2.460609254,4.081580824,0.397,0.603,40.631,51.647,-9.369,4.347
15716,9.62873,245.4,199.2,0.051041744,1.368060453,2.702058233,4.070118686,0.336,0.664,45.203,51.647,-4.797,4.347
15725,12.83268,219.8667,224.9333,0.068025832,1.22571694,3.051118851,4.276835792,0.287,0.713,49.775,51.647,-0.225,4.347
15734,11.53597,198.5667,255.1333,0.061151993,1.106973307,3.460768242,4.567741549,0.242,0.758,54.347,51.647,4.347,4.347
15743,10.80621,175.4667,294.8333,0.057283547,0.978195,3.999280852,4.977475852,0.197,0.803,58.919,51.647,8.919,4.347
15752,12.17465,164,339.2667,0.064537626,0.914270229,4.601999899,5.516270129,0.166,0.834,63.491,51.647,13.491,4.347
15760,8.84398,146.7667,386.6,0.046881797,0.81819771,5.244054784,6.062252494,0.135,0.865,67.555,51.647,17.555,4.347
15769,10.1124,135.4,455.4667,0.053605671,0.754830421,6.178200535,6.933030956,0.109,0.891,72.127,51.647,22.127,4.347
15778,10.148,120.7333,531.6667,0.053794386,0.673066231,7.211819197,7.884885428,0.085,0.915,76.699,51.647,26.699,4.347
15787,9.316,112.1333,616.2,0.049383968,0.625122792,8.358475318,8.98359811,0.07,0.93,81.271,51.647,31.271,4.347
15796,13.85136,99,726.3666,0.073425839,0.551907029,9.852835601,10.40474263,0.053,0.947,85.843,51.647,35.843,4.347
15805,10.48626,88.86667,859.2667,0.055587497,0.495415553,11.65556557,12.15098112,0.041,0.959,90.415,51.647,40.415,4.347
17310,7.58447,747.3666,61.06667,0.040205155,4.166433127,0.82834186,4.994774986,0.834,0.166,9.135,56.219,-40.865,8.919
17319,9.16537,655.3,70.73333,0.04858548,3.653178544,0.959465746,4.612644291,0.792,0.208,13.707,56.219,-36.293,8.919
17328,9.04267,586.5667,80.53333,0.04793505,3.270002874,1.09239833,4.362401204,0.75,0.25,18.279,56.219,-31.721,8.919
17337,6.92064,513.4,96.03333,0.036686202,2.862111803,1.302648845,4.164760648,0.687,0.313,22.851,56.219,-27.149,8.919
17346,11.36139,465.4333,113.6667,0.060226547,2.594706158,1.541837563,4.136543721,0.627,0.373,27.423,56.219,-22.577,8.919
17355,9.33861,397.1667,138.1,0.049503823,2.214132255,1.873264267,4.087396522,0.542,0.458,31.995,56.219,-18.005,8.919
17363,9.11513,333.4,146.8,0.048319159,1.858644478,1.991275846,3.849920325,0.483,0.517,36.059,56.219,-13.941,8.919
17372,10.52341,279.8333,188.1,0.055784429,1.56001985,2.551491735,4.111511585,0.379,0.621,40.631,56.219,-9.369,8.919
17381,9.96123,250.8,194.1,0.052804322,1.398164473,2.632879031,4.031043504,0.347,0.653,45.203,56.219,-4.797,8.919
17390,8.26696,213.7333,215.9,0.043823023,1.191524349,2.928586207,4.120110556,0.289,0.711,49.775,56.219,-0.225,8.919
17399,10.00278,197.6333,253.1,0.053024578,1.101769771,3.433187444,4.534957215,0.243,0.757,54.347,56.219,4.347,8.919
17408,9.50581,178.0333,294.0333,0.050390147,0.992503329,3.988429212,4.980932542,0.199,0.801,58.919,56.219,8.919,8.919
17417,9.20944,154.6,329.8,0.048819095,0.861866936,4.47358838,5.335455316,0.162,0.838,63.491,56.219,13.491,8.919
17425,12.54392,147.1667,386.9333,0.06649512,0.820427638,5.248575848,6.069003486,0.135,0.865,67.555,56.219,17.555,8.919
17434,11.08069,124.9,450.2333,0.058738561,0.696294827,6.107211823,6.80350665,0.102,0.898,72.127,56.219,22.127,8.919
17443,10.54937,111.9,529.6667,0.055922042,0.623822187,7.184690098,7.808512285,0.08,0.92,76.699,56.219,26.699,8.919
17452,9.41729,103.8,622.2,0.049920904,0.578666157,8.439862614,9.018528771,0.064,0.936,81.271,56.219,31.271,8.919
17461,10.88547,93.96667,723.9667,0.057703703,0.523847128,9.820282039,10.34412917,0.051,0.949,85.843,56.219,35.843,8.919
17470,13.31959,88.93333,824.4333,0.070606934,0.495787171,11.18306619,11.67885337,0.042,0.958,90.415,56.219,40.415,8.919
18975,10.06502,657.6,66.63333,0.053354511,3.666000627,0.903851094,4.569851721,0.802,0.198,9.135,60.791,-40.865,13.491
18984,7.37345,603.0333,72.86667,0.039086541,3.36180118,0.988403542,4.350204722,0.773,0.227,13.707,60.791,-36.293,13.491
18993,6.65142,529.9333,79.7,0.035259072,2.954281949,1.081094584,4.035376534,0.732,0.268,18.279,60.791,-31.721,13.491
19002,9.72615,477.7333,94,0.051558166,2.663276425,1.27506764,3.938344065,0.676,0.324,22.851,60.791,-27.149,13.491
19011,8.19887,438.5667,109.7,0.043462079,2.44492974,1.488031065,3.932960805,0.622,0.378,27.423,60.791,-22.577,13.491
19020,8.8418,376.5333,139.5667,0.046870241,2.099104796,1.893159392,3.992264188,0.526,0.474,31.995,60.791,-18.005,13.491
19028,10.01889,309.1,156.6333,0.053109976,1.723176389,2.12466013,3.847836519,0.448,0.552,36.059,60.791,-13.941,13.491
19037,9.99197,267.6,170.9333,0.052967274,1.491821423,2.318633186,3.810454609,0.392,0.608,40.631,60.791,-9.369,13.491
19046,8.19723,233.5667,187.1667,0.043453386,1.302091953,2.538831941,3.840923895,0.339,0.661,45.203,60.791,-4.797,13.491
19055,18.53523,203.3667,208.2333,0.098254959,1.133732436,2.824590877,3.958323312,0.286,0.714,49.775,60.791,-0.225,13.491
19064,10.07166,183.3333,231.2,0.053389709,1.022049867,3.136123813,4.15817368,0.246,0.754,54.347,60.791,4.347,13.491
19073,11.00841,161.2333,291.9,0.058355406,0.898846379,3.959491959,4.858338338,0.185,0.815,58.919,60.791,8.919,13.491
19082,12.01049,147.7667,330.6667,0.063667416,0.823772529,4.485344775,5.309117303,0.155,0.845,63.491,60.791,13.491,13.491
19090,11.07871,137.7,368.4667,0.058728065,0.767652504,4.998084741,5.765737244,0.133,0.867,67.555,60.791,17.555,13.491
19099,11.91407,124.6333,434.2333,0.063156295,0.694808023,5.890179033,6.584987056,0.106,0.894,72.127,60.791,22.127,13.491
19108,12.7835,106.7667,511.9667,0.06776513,0.595204971,6.944597574,7.539802546,0.079,0.921,76.699,60.791,26.699,13.491
19117,13.11776,100.7333,581.1334,0.069537037,0.561569862,7.882812691,8.444382552,0.067,0.933,81.271,60.791,31.271,13.491
19126,9.38562,93,682.0667,0.049753022,0.518458118,9.251927421,9.770385539,0.053,0.947,85.843,60.791,35.843,13.491
19135,12.3873,82.13333,776.3333,0.06566488,0.457878405,10.53061137,10.98848978,0.042,0.958,90.415,60.791,40.415,13.491
20443,10.11926,522.3,72.5,0.053642036,2.911727688,0.983429829,3.895157516,0.748,0.252,13.707,64.855,-36.293,17.555
20452,8.95836,485.0333,70.2,0.047488124,2.7039726,0.952231365,3.656203965,0.74,0.26,18.279,64.855,-31.721,17.555
20461,9.49723,449.2333,87.63333,0.050344665,2.504394099,1.188706631,3.693100729,0.678,0.322,22.851,64.855,-27.149,17.555
20470,5.53718,406.4,116.8667,0.029352503,2.265606227,1.585244121,3.850850348,0.588,0.412,27.423,64.855,-22.577,17.555
20479,11.68051,341.7333,131.7667,0.061918198,1.905101113,1.787355907,3.69245702,0.516,0.484,31.995,64.855,-18.005,17.555
20487,9.3544,294.9667,146.4333,0.049587525,1.644385808,1.986301726,3.630687534,0.453,0.547,36.059,64.855,-13.941,17.555
20496,8.99463,250.4,166.7333,0.04768039,1.395934545,2.261662078,3.657596624,0.382,0.618,40.631,64.855,-9.369,17.555
20505,11.932,224.2667,182.5667,0.063251342,1.250246142,2.476435014,3.726681156,0.335,0.665,45.203,64.855,-4.797,17.555
20514,9.10302,196.1333,212.3,0.048254964,1.093407544,2.87975383,3.973161373,0.275,0.725,49.775,64.855,-0.225,17.555
20523,13.03935,176.7333,241.9333,0.069121387,0.985256065,3.28171619,4.266972256,0.231,0.769,54.347,64.855,4.347,17.555
20532,8.34194,160,272.8667,0.044220491,0.891970955,3.701313822,4.593284777,0.194,0.806,58.919,64.855,8.919,17.555
20541,9.51059,147.1,328.5333,0.050415486,0.820055797,4.456406165,5.276461962,0.155,0.845,63.491,64.855,13.491,17.555
20549,9.31333,129.4333,362.2333,0.049369814,0.721567152,4.913531479,5.63509863,0.128,0.872,67.555,64.855,17.555,17.555
20558,10.51463,121,412.4333,0.055737886,0.674553035,5.594471857,6.269024892,0.108,0.892,72.127,64.855,22.127,17.555
20567,11.21593,112.5667,485.2667,0.059455466,0.627538918,6.582424106,7.209963025,0.087,0.913,76.699,64.855,26.699,17.555
20576,11.28471,98.9,549.6334,0.059820068,0.551349547,7.455529386,8.006878933,0.069,0.931,81.271,64.855,31.271,17.555
20585,9.58664,86.4,629.6,0.050818626,0.481664316,8.540240279,9.021904595,0.053,0.947,85.843,64.855,35.843,17.555
22026,9.29385,471.0667,80,0.049266551,2.62611134,1.085163949,3.711275289,0.708,0.292,13.707,69.427,-36.293,22.127
22035,6.89917,436.6667,75.46667,0.03657239,2.434337585,1.02367137,3.458008955,0.704,0.296,18.279,69.427,-31.721,22.127
22044,6.73715,408.0469,100.77,0.035713525,2.274787395,1.366899639,3.641687035,0.625,0.375,22.851,69.427,-27.149,22.127
22053,10.04207,374.7333,121.3667,0.053232853,2.089070123,1.646284593,3.735354716,0.559,0.441,27.423,69.427,-22.577,22.127
22062,8.85142,314.3,134.5333,0.046921236,1.752165446,1.824883589,3.577049034,0.49,0.51,31.995,69.427,-18.005,22.127
22070,9.89231,265.4,131.9333,0.052438978,1.479556822,1.78961576,3.269172583,0.453,0.547,36.059,69.427,-13.941,22.127
22079,7.89787,229.4333,161.4333,0.041866483,1.279048999,2.189769967,3.468818965,0.369,0.631,40.631,69.427,-9.369,22.127
22088,9.50118,208,177.9,0.050365604,1.159562242,2.413133332,3.572695574,0.325,0.675,45.203,69.427,-4.797,22.127
22097,11.10358,192.5,200,0.058859901,1.073152556,2.712909873,3.786062428,0.283,0.717,49.775,69.427,-0.225,22.127
22106,10.20641,174.1667,228,0.054104017,0.970947736,3.092717255,4.063664991,0.239,0.761,54.347,69.427,4.347,22.127
22115,12.7766,151.4,270.0667,0.067728553,0.844027517,3.663333083,4.5073606,0.187,0.813,58.919,69.427,8.919,22.127
22124,8.04548,137.0667,299.9333,0.042648961,0.764121971,4.068460053,4.832582024,0.158,0.842,63.491,69.427,13.491,22.127
22132,11.61397,125.3,347.9667,0.06156547,0.698524754,4.720011479,5.418536233,0.129,0.871,67.555,69.427,17.555,22.127
22141,10.74879,115.6667,389.0333,0.056979165,0.644820856,5.277061402,5.921882257,0.109,0.891,72.127,69.427,22.127,22.127
22150,11.01768,101.2667,447.8,0.058404546,0.56454347,6.074205205,6.638748674,0.085,0.915,76.699,69.427,26.699,22.127
22159,10.55186,95.76667,515.6,0.055935242,0.533881801,6.993881652,7.527763452,0.071,0.929,81.271,69.427,31.271,22.127
22168,10.98656,86.96667,568.4333,0.05823958,0.484823398,7.710541557,8.195364956,0.059,0.941,85.843,69.427,35.843,22.127
23535,36.27312,389.5,81.96667,0.192283232,2.171391795,1.111840941,3.283232736,0.661,0.339,18.279,73.999,-31.721,26.699
23544,10.30956,369.4333,100,0.054650813,2.059523585,1.356454936,3.415978521,0.603,0.397,22.851,73.999,-27.149,26.699
23553,11.24853,332.9667,118.9,0.059628278,1.85622891,1.612824919,3.469053829,0.535,0.465,27.423,73.999,-22.577,26.699
23562,12.28892,287.3333,139.0667,0.065143369,1.601830988,1.886377117,3.488208105,0.459,0.541,31.995,73.999,-18.005,26.699
23570,9.36242,243.1,136.6667,0.049630039,1.35523837,1.853822198,3.209060569,0.422,0.578,36.059,73.999,-13.941,26.699
23579,11.19955,218.5667,155.7667,0.059368636,1.218469676,2.112905091,3.331374768,0.366,0.634,40.631,73.999,-9.369,26.699
23588,9.87039,191.5667,179.2333,0.05232278,1.067949578,2.431218945,3.499168523,0.305,0.695,45.203,73.999,-4.797,26.699
23597,11.67375,169.8333,193.9,0.061882363,0.946789818,2.630166121,3.576955939,0.265,0.735,49.775,73.999,-0.225,26.699
23606,12.1096,156.1385,228.2076,0.064192797,0.870443794,3.095533255,3.965977049,0.219,0.781,54.347,73.999,4.347,26.699
23615,11.84489,140.9,256.7333,0.062789573,0.785491923,3.482471521,4.267963444,0.184,0.816,58.919,73.999,8.919,26.699
23624,10.84612,132.9,275.1667,0.057495109,0.740893375,3.732512285,4.47340566,0.166,0.834,63.491,73.999,13.491,26.699
23632,9.71524,117.0667,318.6333,0.051500333,0.652625602,4.322117127,4.974742728,0.131,0.869,67.555,73.999,17.555,26.699
23641,12.04988,108.6,351.5667,0.063876222,0.605425286,4.768843857,5.374269143,0.113,0.887,72.127,73.999,22.127,26.699
23650,9.85201,94.8,408.9667,0.052225348,0.528492791,5.54744899,6.075941781,0.087,0.913,76.699,73.999,26.699,26.699
23659,77.42027,84.5,462.6,0.410403618,0.471072161,6.274960535,6.746032696,0.07,0.93,81.271,73.999,31.271,26.699
24476,416.1132,345.7667,83,2.205809447,1.927586586,1.125857597,3.053444183,0.631,0.369,17.771,77.047,-32.229,29.747
24602,444.5891,70.46667,424.0667,2.35675974,0.392838894,5.752273685,6.145112579,0.064,0.936,81.779,77.047,31.779,29.747
24927,102.0128,348.2,85.66666,0.540768228,1.941151792,1.162029638,3.10318143,0.626,0.374,18.279,78.571,-31.721,31.271
24936,9.54942,327.2,89.63333,0.050621323,1.824080604,1.215835729,3.039916333,0.6,0.4,22.851,78.571,-27.149,31.271
24945,8.98842,290.5333,105.7333,0.047647471,1.619670407,1.434224567,3.053894975,0.53,0.47,27.423,78.571,-22.577,31.271
24954,13.89485,248.9667,130.6333,0.073656379,1.387944158,1.771981846,3.159926004,0.439,0.561,31.995,78.571,-18.005,31.271
24962,10.26538,224,135.9667,0.054416616,1.248759338,1.844327014,3.093086351,0.404,0.596,36.059,78.571,-13.941,31.271
24971,12.23527,203.1333,139.0667,0.064858971,1.132431273,1.886377117,3.01880839,0.375,0.625,40.631,78.571,-9.369,31.271
24980,12.27255,177.5667,170.5333,0.065056592,0.989902119,2.313207366,3.303109485,0.3,0.7,45.203,78.571,-4.797,31.271
24989,10.74179,160.9333,187.8667,0.056942058,0.897173933,2.548327126,3.445501059,0.26,0.74,49.775,78.571,-0.225,31.271
24998,12.44406,146.2333,207.0667,0.065965764,0.815224102,2.808766474,3.623990576,0.225,0.775,54.347,78.571,4.347,31.271
25007,12.1125,134.7667,237.0667,0.06420817,0.751299888,3.215702954,3.967002843,0.189,0.811,58.919,78.571,8.919,31.271
25016,11.51517,117.5,264.8333,0.061041733,0.65504117,3.592344371,4.247385541,0.154,0.846,63.491,78.571,13.491,31.271
25024,10.01581,113.3333,310.7667,0.053093649,0.631812574,4.215410243,4.847222817,0.13,0.87,67.555,78.571,17.555,31.271
25033,9.51731,103.6333,332.6333,0.050451109,0.577736835,4.512020818,5.089757653,0.114,0.886,72.127,78.571,22.127,31.271
25042,11.552,94.9,371.7,0.061236968,0.529050273,5.041942998,5.570993271,0.095,0.905,76.699,78.571,26.699,31.271
26195,10.32141,292.8,98.7,0.05471363,1.632306848,1.338821022,2.971127871,0.549,0.451,22.851,83.143,-27.149,35.843
26204,12.79314,262.8087,116.3705,0.067816231,1.465110795,1.578513392,3.043624187,0.481,0.519,27.423,83.143,-22.577,35.843
26213,10.26526,224.7333,117.8333,0.05441598,1.252847352,1.598355614,2.851202966,0.439,0.561,31.995,83.143,-18.005,35.843
26221,9.73592,198.9,130.8,0.051609957,1.108831394,1.774243057,2.883074451,0.385,0.615,36.059,83.143,-13.941,35.843
26230,10.43871,180.8667,142.2,0.055335435,1.00829902,1.928878919,2.937177939,0.343,0.657,40.631,83.143,-9.369,35.843
26239,11.17353,171.2333,164.7333,0.059230705,0.954594564,2.23453298,3.189127543,0.299,0.701,45.203,83.143,-4.797,35.843
26248,12.14291,153.6667,180.4333,0.064369373,0.856663958,2.447496405,3.304160362,0.259,0.741,49.775,83.143,-0.225,35.843
26257,14.9122,136.7333,192.4667,0.079049335,0.762263326,2.610724053,3.372987379,0.226,0.774,54.347,83.143,4.347,35.843
26266,15.24662,129.7,212.0333,0.08082209,0.723053956,2.876136164,3.59919012,0.201,0.799,58.919,83.143,8.919,35.843
26275,10.91491,119.1667,245.7333,0.057859764,0.66433272,3.333261478,3.997594198,0.166,0.834,63.491,83.143,13.491,35.843
26283,12.85003,107.6333,275.3667,0.068117804,0.600036109,3.735225195,4.335261304,0.138,0.862,67.555,83.143,17.555,35.843
26292,11.15173,96.6,295.5,0.059115143,0.538527464,4.008324337,4.546851801,0.118,0.882,72.127,83.143,22.127,35.843
27218,436.7795,132.3,168.9333,2.315361174,0.737548484,2.291504087,3.029052571,0.243,0.757,49.775,87.207,-0.225,39.907
27292,11.30161,205.2333,114.8,0.059909655,1.144138392,1.557210267,2.701348659,0.424,0.576,31.995,87.715,-18.005,40.415
27300,12.00386,190.6667,126.1667,0.063632271,1.062932241,1.71139443,2.774326671,0.383,0.617,36.059,87.715,-13.941,40.415
27309,12.07419,166.9333,135.8,0.064005089,0.930622844,1.842065804,2.772688648,0.336,0.664,40.631,87.715,-9.369,40.415
27318,10.2093,155.4667,148.4333,0.054119337,0.866698631,2.013430825,2.880129456,0.301,0.699,45.203,87.715,-4.797,40.415
27327,371.0137,126.6667,166.1667,1.966737716,0.706143859,2.253976405,2.960120264,0.239,0.761,49.775,87.715,-0.225,40.415
27336,9.81236,135.7,181.0667,0.052015164,0.756502867,2.45608819,3.212591057,0.235,0.765,54.347,87.715,4.347,40.415
27345,12.34863,116.6667,198.2,0.065459891,0.650395674,2.688493684,3.338889358,0.195,0.805,58.919,87.715,8.919,40.415
27354,9.38367,105.6333,230.5333,0.049742685,0.588886472,3.127080328,3.7159668,0.158,0.842,63.491,87.715,13.491,40.415
27362,12.91776,100.7333,243.4667,0.06847684,0.561569862,3.30251607,3.864085932,0.145,0.855,67.555,87.715,17.555,40.415
