transition,nmol.CPS,density.ug.cm2,MW.g.mol,description
Ag.L,0.073449029,16.7,107.87,Silver as Ag metal (WILL OXIDIZE)
Al.K,0.104201332,17.7,26.98,Aluminum as Al metal
Au.L,0.01664509,21.5,196.97,Gold as Au metal
Ba.L,0.033160079,16.6,175.33,Barium as BaF2
Bi.L,0.01750493,17.6,208.98,Bismuth as Bi metal
Ca.K,0.044135967,18.8,78.08,Calcium as CaF2
Ce.L,0.031860339,15.4,197.12,Cerium as CeF3
Co.K,0.021274759,17.7,58.93,Cobalt as Co metal
Cr.K,0.025565968,17.2,52,Chromium as Cr metal
Cu.K,0.018403756,15.3,63.55,Copper as Cu metal
Fe.K,0.021214075,11.1,55.85,Iron as Fe metal (WILL OXIDIZE)
Ga.K,0.018365288,22.9,100.697,Ga as GaP
Ge.K,0.018110687,17.9,72.64,Germanium as Ge metal
Hf.L,0.008127661,10.7,686.09,Hafnium as HfI4
In.L,0.062651875,18.9,114.82,Indium as In metal
La.L,0.063016017,16.1,95.91,Lanthanum as LaF3
Mg.K,0.167687268,17.8,62.44,Magnesium as MgF2 (Mg=6.93 g/cm2)
Mn.K,0.024464966,22.8,54.94,Manganese as Mn metal (WILL OXIDIZE)
Mo.K,0.055461821,16.9,143.95,Molybdenum as MoO3
Nb.K,0.042592685,18.1,233.82,Niobium as Nb2O3
Ni.K,0.018945712,15.6,58.69,Nickel as Ni metal
P.K,0.026347829,22.9,100.697,P as Gap
Pb.L,0.018923485,18.7,207.2,Lead as Pb metal (WILL OXIDIZE)
Pd.L,0.022138765,16.2,106.42,Palladium as Pd metal
Pt.L,0.016587331,18.2,195.08,Platinum as Pt metal
Ru.L,0.033076154,18,101.07,Ruthenium as Ru metal
S.K,0.014211197,15.6,82.6,"Sulfur as CuSx (Cu=12.0 g/cm2, Sx=3.6), x=0.594"
Sb.L,0.043229474,18.3,127.76,Antimony as Sb metal
Sc.K,0.034122875,18.5,128.97,Scandium as ScF3
Sn.L,0.056537952,19.8,118.71,Tin as Sn metal
Sr.K,0.025236732,17.1,125.62,Strontium as SrF2
Ta.L,0.023667805,41.5,180.95,Tantalum as Ta metal (medium loading on 6.3 um mylar)
Te.L,0.033868427,17.6,192.75,"Tellurium as ZnTex (Zn=5.97, Tex=11.63) x=0.99816"
Ti.K,0.035077268,13.4,47.87,Titanium as Ti metal
V.K,0.03317363,17.3,50.94,Vanadium as V metal (WILL OXIDIZE)
W.L,0.016100444,17.6,231.84,Tungsten as WO3
Y.K,0.03125037,19.1,145.91,Yttrium as YF3
Yb.L,0.018729193,17.1,230.04,Yb as YbF3
Zn.K,0.017021699,17.6,192.75,"Zinc as ZnTex (Zn=5.97, Tex=11.63) x=0.99816"
Zr.K,0.028154956,17.3,167.22,Zirconium as ZrF4
