Sample,AuL,TiK,HfL,ZrK,SnL,Au.nmolmm2,Ti.nmolmm2,Hf.nmolmm2,Zr.nmolmm2,Sn.nmolmm2,total.nmolmm2,Ti.AtFrac,Hf.AtFrac,Zr.AtFrac,Sn.AtFrac,x.mm,y.mm,cornell.x,cornell.y
766,13.86667,689.9667,3976.033,271.6333,46.36666,0.073506997,7.707690079,10.29167145,2.435612615,0.834864967,21.26983911,0.362,0.484,0.115,0.039,36.059,6.435,-13.941,-40.865
775,16.8,604.5333,4228.133,310.5667,50.26667,0.089056532,6.753304643,10.94421391,2.784710756,0.905087444,21.38731676,0.316,0.512,0.13,0.042,40.631,6.435,-9.369,-40.865
784,17.13333,522.0667,4343.5,346.1333,48.46667,0.09082351,5.83206164,11.24283298,3.103620329,0.872677154,21.0511921,0.277,0.534,0.147,0.041,45.203,6.435,-4.797,-40.865
793,51,465.0667,4313.467,382.4,47.6,0.270350188,5.195308686,11.16509475,3.42880738,0.857072139,20.64628295,0.252,0.541,0.166,0.042,49.775,6.435,-0.225,-40.865
802,14,403,4165.267,414.5,45.53333,0.074213777,4.501955097,10.78148986,3.716633523,0.819860263,19.81993874,0.227,0.544,0.188,0.041,54.347,6.435,4.347,-40.865
811,16.06667,349.9667,3908.7,445.2,50.96667,0.085169162,3.909514563,10.11738489,3.9919065,0.917691447,18.9364974,0.206,0.534,0.211,0.048,58.919,6.435,8.919,-40.865
820,11.8,305.5667,3503.867,486.8333,49.4,0.062551612,3.413517525,9.069504193,4.365213421,0.88948243,17.73771757,0.192,0.511,0.246,0.05,63.491,6.435,13.491,-40.865
1014,143.4333,481.1667,4158.133,390.9,50.8,0.760337639,5.375163468,10.76302402,3.505023026,0.914690434,20.55790095,0.261,0.524,0.17,0.044,49.775,7.451,-0.225,-39.849
1828,14.23333,1076.467,2876.333,220.6667,58.96667,0.075450656,12.0253253,7.4451782,1.978618226,1.061737184,22.51085891,0.534,0.331,0.088,0.047,27.423,11.007,-22.577,-36.293
1837,15.2,932.6667,3186.767,245.2333,53.6,0.080574958,10.41891713,8.248713969,2.198895787,0.965106442,21.83163333,0.477,0.378,0.101,0.044,31.995,11.007,-18.005,-36.293
1845,17.16667,818.9,3383.533,284.9,59.4,0.091000244,9.148017441,8.75802841,2.554569097,1.069539602,21.53015455,0.425,0.407,0.119,0.05,36.059,11.007,-13.941,-36.293
1854,14.7,720.0333,3565.067,331.2333,55.73334,0.077924466,8.043567208,9.227915929,2.970018786,1.003518759,21.24502068,0.379,0.434,0.14,0.047,40.631,11.007,-9.369,-36.293
1863,14.66667,622.7667,3650.1,365.2667,60.06667,0.077747784,6.956991859,9.448017648,3.275180849,1.081543473,20.76173383,0.335,0.455,0.158,0.052,45.203,11.007,-4.797,-36.293
1872,14.76667,535.7,3622.9,387.5333,58.56667,0.078277883,5.984360658,9.377612432,3.474835354,1.054534897,19.89134334,0.301,0.471,0.175,0.053,49.775,11.007,-0.225,-36.293
1881,14.76667,463.6,3513.6,439.1333,57.3,0.078277883,5.178924027,9.094697353,3.937509153,1.031727595,19.24285813,0.269,0.473,0.205,0.054,54.347,11.007,4.347,-36.293
1890,16.76667,408.6333,3340.533,484.7333,61.6,0.088879851,4.56488528,8.646726046,4.346383673,1.109152179,18.66714718,0.245,0.463,0.233,0.059,58.919,11.007,8.919,-36.293
1899,13.43333,358.5667,3060.433,547.4333,56.8,0.071209868,4.005586061,7.921707623,4.908586138,1.022724737,17.85860456,0.224,0.444,0.275,0.057,63.491,11.007,13.491,-36.293
1907,11.8,318.9333,2792.367,600.4333,58.56667,0.062551612,3.56283721,7.227838332,5.383813103,1.054534897,17.22902354,0.207,0.42,0.312,0.061,67.555,11.007,17.555,-36.293
1916,11.96667,278.7667,2490.867,690.9,62.8,0.063435127,3.114131925,6.447427571,6.194986975,1.13075904,16.88730551,0.184,0.382,0.367,0.067,72.127,11.007,22.127,-36.293
3078,11.43333,1509.4,2270.567,196.7667,67.60001,0.0606079,16.86166507,5.877197087,1.764317765,1.217186663,25.72036658,0.656,0.229,0.069,0.047,22.851,15.579,-27.149,-31.721
3087,11.86667,1297.933,2481.933,241,67.93333,0.062905029,14.49934512,6.424302563,2.160937706,1.223188328,24.30777372,0.596,0.264,0.089,0.05,27.423,15.579,-22.577,-31.721
3096,9.8,1111.267,2722.267,271.0333,69.33334,0.051949644,12.41407974,7.046389595,2.430232687,1.248396512,23.13909853,0.536,0.305,0.105,0.054,31.995,15.579,-18.005,-31.721
3104,10.83333,947.8,2846.533,286.4667,71.96667,0.05742731,10.58797281,7.368043073,2.568616985,1.295811508,21.82044437,0.485,0.338,0.118,0.059,36.059,15.579,-13.941,-31.721
3113,16.9,826.4333,2962.833,332.7333,71.1,0.089586631,9.232172722,7.669077141,2.983468605,1.280206493,21.16492496,0.436,0.362,0.141,0.06,40.631,15.579,-9.369,-31.721
3122,13.9,694.9,2918.433,360,70.26667,0.073683679,7.762800488,7.554150979,3.227956739,1.265201788,19.81010999,0.392,0.381,0.163,0.064,45.203,15.579,-4.797,-31.721
3131,12,617.4333,3013.5,416.7333,69.83334,0.063611809,6.897411891,7.800224976,3.736658511,1.257399371,19.69169475,0.35,0.396,0.19,0.064,49.775,15.579,-0.225,-31.721
3140,13.9,534.5,2947.6,468,69.86667,0.073683679,5.970955333,7.629647632,4.196343761,1.257999502,19.05494623,0.313,0.4,0.22,0.066,54.347,15.579,4.347,-31.721
3149,11.9,462.1333,2820.8,542.6,74.06667,0.063081711,5.162539368,7.301435079,4.865248129,1.333623514,18.66284609,0.277,0.391,0.261,0.071,58.919,15.579,8.919,-31.721
3158,15.1,405.1,2639.333,608.7333,71.5,0.08004486,4.525414416,6.831720984,5.458235439,1.28740878,18.10277962,0.25,0.377,0.302,0.071,63.491,15.579,13.491,-31.721
3166,13.63333,351.7667,2477.7,687.3666,74.9,0.072270065,3.929622551,6.413345751,6.163304579,1.348628218,17.8549011,0.22,0.359,0.345,0.076,67.555,15.579,17.555,-31.721
3175,12.73333,315.3667,2247.167,788.3,74.23333,0.06749918,3.522994348,5.816627894,7.068328603,1.336624347,17.74457519,0.199,0.328,0.398,0.075,72.127,15.579,22.127,-31.721
3184,11.06704,285.6095,2032.168,929.7643,77.23591,0.058666203,3.190573559,5.260118662,8.336774827,1.390687953,18.178155,0.176,0.289,0.459,0.077,76.699,15.579,26.699,-31.721
3518,116.3,1900.933,1957.8,187.0667,74.66666,0.616504448,21.23552111,5.067622518,1.677342264,1.344426764,29.32491266,0.724,0.173,0.057,0.046,17.771,17.103,-32.229,-30.197
3644,120.5667,234.3333,1734.3,1096.1,75.63333,0.639122157,2.617761772,4.489109068,9.828231615,1.361832351,18.29693481,0.143,0.245,0.537,0.074,81.779,17.103,31.779,-30.197
4461,22.53333,2149.533,1898.1,201.4333,81.23333,0.119448824,24.01265768,4.913093422,1.80616105,1.462664367,32.19457652,0.746,0.153,0.056,0.045,18.279,20.151,-31.721,-27.149
4470,7.9,1840.2,2046.9,227.9,81.96667,0.041877774,20.55706642,5.29825137,2.043475947,1.47586868,29.37466242,0.7,0.18,0.07,0.05,22.851,20.151,-27.149,-27.149
4479,12.53333,1538.633,2189.6,242.2667,79.1,0.066438983,17.18822997,5.667619913,2.17229563,1.42425223,26.45239774,0.65,0.214,0.082,0.054,27.423,20.151,-22.577,-27.149
4488,14.03333,1303.867,2307.167,274.4,80.2,0.074390459,14.56563446,5.971933518,2.460420359,1.444058519,24.44204685,0.596,0.244,0.101,0.059,31.995,20.151,-18.005,-27.149
4496,13.23333,1113.967,2411.2,308,80.56667,0.070149672,12.44424172,6.241215351,2.761696321,1.450660676,22.89781407,0.543,0.273,0.121,0.063,36.059,20.151,-13.941,-27.149
4505,11.53333,942.3666,2496.833,337.4667,81.33334,0.061137999,10.52727573,6.462870127,3.025910857,1.464465119,21.48052183,0.49,0.301,0.141,0.068,40.631,20.151,-9.369,-27.149
4514,14,807.5667,2557.2,392.4667,78.83334,0.074213777,9.021411963,6.619125704,3.519070914,1.419450826,20.57905941,0.438,0.322,0.171,0.069,45.203,20.151,-4.797,-27.149
4523,10.16667,688.1667,2515.2,445.6333,81.73333,0.053893356,7.687582091,6.510411767,3.995791705,1.471667226,19.66545279,0.391,0.331,0.203,0.075,49.775,20.151,-0.225,-27.149
4532,14.66667,597.3333,2476.233,509,82.56667,0.077747784,6.672872691,6.409548529,4.563972167,1.48667211,19.1330655,0.349,0.335,0.239,0.078,54.347,20.151,4.347,-27.149
4541,10.46667,519.8333,2381.333,572.9667,84.13333,0.055483651,5.807112095,6.1639068,5.137532557,1.514880947,18.6234324,0.312,0.331,0.276,0.081,58.919,20.151,8.919,-27.149
4550,12.2,449.4667,2279.067,668.2333,82.53333,0.064672006,5.021039456,5.899198717,5.991744955,1.486071799,18.39805493,0.273,0.321,0.326,0.081,63.491,20.151,13.491,-27.149
4558,15.46667,396.3333,2157.467,791.4,83,0.081988571,4.427480695,5.584445986,7.096124898,1.494474527,18.60252611,0.238,0.3,0.381,0.08,67.555,20.151,17.555,-27.149
4567,10.76667,354,2025.133,917.2667,85.63333,0.057073946,3.954570978,5.241909078,8.224714516,1.541889523,18.96308409,0.209,0.276,0.434,0.081,72.127,20.151,22.127,-27.149
4576,11.9,303.0333,1854.367,1065.3,86.63333,0.063081711,3.385216649,4.799893741,9.552061983,1.55989524,19.29706761,0.175,0.249,0.495,0.081,76.699,20.151,26.699,-27.149
4585,61.1,254.8667,1628.7,1180.167,78.3,0.323890127,2.847142529,4.215771169,10.58202228,1.409847657,19.05478363,0.149,0.221,0.555,0.074,81.271,20.151,31.271,-27.149
5952,12.43333,2817.3,1461.1,157.3,76.43333,0.065908884,31.47235259,3.781950792,1.410437764,1.376236924,38.04097807,0.827,0.099,0.037,0.036,13.707,24.723,-36.293,-22.577
5961,8.96667,2528,1673.267,203.1667,90.1,0.047532175,28.24055207,4.331129598,1.821703662,1.622315119,36.01570045,0.784,0.12,0.051,0.045,18.279,24.723,-31.721,-22.577
5970,10.96667,2169.767,1841.5,238.1333,95.26667,0.058134143,24.23869381,4.76658845,2.135233307,1.715344718,32.85586028,0.738,0.145,0.065,0.052,22.851,24.723,-27.149,-22.577
5979,9.4,1811.367,1928.367,259.6667,91.1,0.04982925,20.23496997,4.991437344,2.328313539,1.640320837,29.19504169,0.693,0.171,0.08,0.056,27.423,24.723,-22.577,-22.577
5988,10.9,1494.733,1974.533,294.4,96.3,0.057780726,16.69781848,5.110934668,2.639751289,1.733950566,26.182455,0.638,0.195,0.101,0.066,31.995,24.723,-18.005,-22.577
5996,10.4,1266.133,2064.733,313.6667,93.16666,0.055130234,14.144104,5.34441079,2.81250705,1.677532532,23.97855437,0.59,0.223,0.117,0.07,36.059,24.723,-13.941,-22.577
6005,9.53333,1059.633,2116.667,360.3,97.56666,0.050536031,11.83727093,5.478838161,3.230646703,1.756757688,22.30351348,0.531,0.246,0.145,0.079,40.631,24.723,-9.369,-22.577
6014,8.73333,892.4,2137.533,408.2333,93.63333,0.046295243,9.969093619,5.53284828,3.660442866,1.68593526,20.84832003,0.478,0.265,0.176,0.081,45.203,24.723,-4.797,-22.577
6023,14.26667,755.1334,2143.667,469.5,96.03333,0.07562739,8.435674092,5.548725692,4.20979358,1.729148982,19.92334235,0.423,0.279,0.211,0.087,49.775,24.723,-0.225,-22.577
6032,11.13333,655.4,2113.2,540.2,99.99999,0.059017605,7.321541862,5.469864084,4.843728418,1.80057154,19.4357059,0.377,0.281,0.249,0.093,54.347,24.723,4.347,-22.577
6041,13.33333,564.8,2047.5,624.5,100.8667,0.07067977,6.309439798,5.299804426,5.599608287,1.816177275,19.02502979,0.332,0.279,0.294,0.095,58.919,24.723,8.919,-22.577
6050,10.33333,484.5333,1987.767,747,96.03333,0.054776818,5.412772108,5.145189912,6.698010233,1.729148982,18.98512123,0.285,0.271,0.353,0.091,63.491,24.723,13.491,-22.577
6058,12.33333,443.6,1908.333,904.1334,94.4,0.065378786,4.955501938,4.939580796,8.10695417,1.699739703,19.70177661,0.252,0.251,0.411,0.086,67.555,24.723,17.555,-22.577
6067,9.26667,374.9,1800.533,1049.3,99.43333,0.04912247,4.188047062,4.660548358,9.408597239,1.79036842,20.04756108,0.209,0.232,0.469,0.089,72.127,24.723,22.127,-22.577
6076,8.06667,319.8667,1638.667,1173.8,89.8,0.042761289,3.573264319,4.241570022,10.52493228,1.616913404,19.95668002,0.179,0.213,0.527,0.081,76.699,24.723,26.699,-22.577
6085,7.76667,256.4,1437.267,1311.8,82.26667,0.041170994,2.864271183,3.72026081,11.76231569,1.481270395,19.82811808,0.144,0.188,0.593,0.075,81.271,24.723,31.271,-22.577
7526,9.53333,3552.767,1112.833,126.0667,74.53333,0.050536031,39.68833127,2.880487062,1.130382927,1.342026062,45.04122732,0.881,0.064,0.025,0.03,9.135,29.295,-40.865,-18.005
7535,12.3,3150.367,1265.167,153.1667,85.03333,0.065202104,35.19307884,3.274792511,1.373376337,1.531086092,41.37233378,0.851,0.079,0.033,0.037,13.707,29.295,-36.293,-18.005
7544,13.46667,2782.033,1441.533,198.0333,91.23333,0.071386603,31.07838125,3.73130304,1.775674792,1.642721539,38.22808062,0.813,0.098,0.046,0.043,18.279,29.295,-31.721,-18.005
7553,7.4,2429.9,1585.3,232.5667,107.0667,0.039227282,27.14466672,4.103433434,2.085320129,1.927812721,35.26123301,0.77,0.116,0.059,0.055,22.851,29.295,-27.149,-18.005
7562,10.43333,2055.167,1708.7,274.3333,109.1,0.055306916,22.95848524,4.422845335,2.45982229,1.964423746,31.80557661,0.722,0.139,0.077,0.062,27.423,29.295,-22.577,-18.005
7571,11.16667,1698.2,1759.533,303.6667,111.0333,0.05919434,18.97076959,4.554422848,2.722841585,1.999234199,28.24726822,0.672,0.161,0.096,0.071,31.995,29.295,-18.005,-18.005
7579,10.53333,1425.667,1784.767,328,107.5333,0.055837015,15.92627498,4.619739217,2.941027251,1.936214189,25.42325564,0.626,0.182,0.116,0.076,36.059,29.295,-13.941,-18.005
7588,10.8,1174.267,1810.5,378.2,106.4333,0.057250628,13.11785932,4.68634721,3.391147885,1.9164079,23.11176231,0.568,0.203,0.147,0.083,40.631,29.295,-9.369,-18.005
7597,9.86667,986.4,1845.533,437.3333,109.3,0.052303061,11.01917744,4.777027576,3.921369369,1.96802489,21.68559927,0.508,0.22,0.181,0.091,45.203,29.295,-4.797,-18.005
7606,9.73333,840.4999,1833.433,500.8667,109.1667,0.051596227,9.38931218,4.745707608,4.491044554,1.965624728,20.59168907,0.456,0.23,0.218,0.095,49.775,29.295,-0.225,-18.005
7615,12.86667,702.9333,1817.8,588.8,107.1,0.068206013,7.852541322,4.705242728,5.279502577,1.928412312,19.76569894,0.397,0.238,0.267,0.098,54.347,29.295,4.347,-18.005
7624,10.3,616.2333,1798.433,692.1667,113.7,0.054600136,6.884006565,4.655112661,6.206344899,2.047250045,19.79271417,0.348,0.235,0.314,0.103,58.919,29.295,8.919,-18.005
7633,9.16667,529.8,1752.9,827.8,112.0333,0.048592372,5.918451142,4.537253811,7.42250719,2.017239916,19.89545206,0.297,0.228,0.373,0.101,63.491,29.295,13.491,-18.005
7641,11.73333,463.0667,1689.8,970.0333,109.8667,0.062198195,5.172966477,4.373924063,8.697848688,1.97822873,20.22296796,0.256,0.216,0.43,0.098,67.555,29.295,17.555,-18.005
7650,8.86667,391.5333,1560.933,1109.167,104.2667,0.047002076,4.373859393,4.040361232,9.945397478,1.877396713,20.23701482,0.216,0.2,0.491,0.093,72.127,29.295,22.127,-18.005
7659,9.43333,326.1,1411.8,1244.1,96.4,0.050005932,3.642897164,3.654341338,11.1552805,1.735751138,20.18827014,0.18,0.181,0.553,0.086,76.699,29.295,26.699,-18.005
7668,8.46667,266.0667,1246.167,1414.233,88.23333,0.044881683,2.972258899,3.225612397,12.68078595,1.588704387,20.46736163,0.145,0.158,0.62,0.078,81.271,29.295,31.271,-18.005
7677,7.5,217.7667,1098.8,1585.767,81.13333,0.039757381,2.432694553,2.844163665,14.21885354,1.460863795,20.95657555,0.116,0.136,0.678,0.07,85.843,29.295,35.843,-18.005
8985,8.46667,3915.6,997.6334,131.9333,76.93333,0.044881683,43.74157662,2.582301299,1.182986069,1.385239783,48.89210377,0.895,0.053,0.024,0.028,9.135,33.359,-40.865,-13.941
8994,9.9,3431.2,1119.9,149.8667,88.53333,0.052479742,38.33029362,2.898779476,1.343786734,1.594106103,44.16696593,0.868,0.066,0.03,0.036,13.707,33.359,-36.293,-13.941
9003,5.3,2996.133,1240.967,187,99.66666,0.028095216,33.47011471,3.212152576,1.676744195,1.794569694,40.15358118,0.834,0.08,0.042,0.045,18.279,33.359,-31.721,-13.941
9012,8.36667,2586.2,1385.067,229.8,107.6333,0.044351584,28.89071035,3.585144917,2.060512385,1.938014761,36.47438241,0.792,0.098,0.056,0.053,22.851,33.359,-27.149,-13.941
9021,9.83333,2192.5,1492.667,272.6667,113.4,0.052126326,24.49264653,3.863659669,2.444878644,2.04184833,32.84303317,0.746,0.118,0.074,0.062,27.423,33.359,-22.577,-13.941
9030,9.3,1862.133,1587.433,309.1,121.6,0.049299152,20.80208226,4.108954549,2.771559522,2.189495211,29.87209154,0.696,0.138,0.093,0.073,31.995,33.359,-18.005,-13.941
9038,10.26667,1564.333,1611.433,364.7,119.5333,0.054423454,17.47532735,4.171076799,3.270099507,2.152282795,27.06878645,0.646,0.154,0.121,0.08,36.059,33.359,-13.941,-13.941
9047,9.23333,1286,1631.2,401.2667,121.8,0.048945735,14.36604033,4.222242237,3.597976523,2.193096355,24.37935545,0.589,0.173,0.148,0.09,40.631,33.359,-9.369,-13.941
9056,13.16667,1073.167,1620.2,448.7,123.1667,0.069796308,11.98846066,4.193769539,4.023289413,2.217704768,22.42322438,0.535,0.187,0.179,0.099,45.203,33.359,-4.797,-13.941
9065,7.76667,886.4667,1621.567,515.8,123.6,0.041170994,9.902812105,4.197307919,4.624944683,2.225506646,20.95057135,0.473,0.2,0.221,0.106,49.775,33.359,-0.225,-13.941
9074,9.9,755.2667,1641.733,608.6334,119.6,0.052479742,8.4371632,4.249506139,5.457339681,2.153483777,20.2974928,0.416,0.209,0.269,0.106,54.347,33.359,4.347,-13.941
9083,11.03333,638.7666,1592.9,738.8333,120.4667,0.058487507,7.135728413,4.12310548,6.624783138,2.169089332,20.05270636,0.356,0.206,0.33,0.108,58.919,33.359,8.919,-13.941
9092,11.1,547.6,1558.633,884.8333,122,0.058840923,6.117296802,4.034407849,7.933898926,2.196697498,20.28230108,0.302,0.199,0.391,0.108,63.491,33.359,13.491,-13.941
9100,8.73333,478.7,1498.567,1028.5,115.9333,0.046295243,5.347607704,3.878931389,9.222093072,2.087462214,20.53609438,0.26,0.189,0.449,0.102,67.555,33.359,17.555,-13.941
9109,6.93333,388.5333,1351.033,1141.667,108,0.036753472,4.34034608,3.49705039,10.23681024,1.944617457,20.01882417,0.217,0.175,0.511,0.097,72.127,33.359,22.127,-13.941
9118,7.06667,329.3,1235.867,1301.867,102.9333,0.037460305,3.678644698,3.198951598,11.67325099,1.85338789,20.40423517,0.18,0.157,0.572,0.091,76.699,33.359,26.699,-13.941
9127,8.5,265.6,1106.067,1484.933,87.6,0.045058365,2.967045344,2.862973764,13.31472079,1.577300826,20.72204072,0.143,0.138,0.643,0.076,81.271,33.359,31.271,-13.941
9136,6.83333,224.4,990.3333,1726.433,82.5,0.036223374,2.506795841,2.563405522,15.48014177,1.485471669,22.0358148,0.114,0.116,0.702,0.067,85.843,33.359,35.843,-13.941
10650,7.86667,4265.467,884.8666,131.3,86.53333,0.041701092,47.64997742,2.290412661,1.177307555,1.558094668,52.67579231,0.905,0.043,0.022,0.03,9.135,37.931,-40.865,-9.369
10659,7.06667,3692.333,985.8,152.6667,90.46667,0.037460305,41.24743764,2.551671406,1.368893064,1.628917276,46.79691938,0.881,0.055,0.029,0.035,13.707,37.931,-36.293,-9.369
10668,7.43333,3131.467,1064.167,178.5333,98.73333,0.039403964,34.98194497,2.75451867,1.600827136,1.777764418,41.11505519,0.851,0.067,0.039,0.043,18.279,37.931,-31.721,-9.369
10677,8.96667,2724.3,1178.8,213.8333,111.5333,0.047532175,30.43343988,3.05123783,1.917346227,2.008237058,37.41026099,0.814,0.082,0.051,0.054,22.851,37.931,-27.149,-9.369
10686,9.7,2350.367,1292,265.3667,121.7667,0.051419546,26.25619527,3.344247775,2.379422854,2.192496764,34.17236267,0.768,0.098,0.07,0.064,27.423,37.931,-22.577,-9.369
10695,9.66667,2004.033,1399.033,321.9333,128.9667,0.051242864,22.38726198,3.621294889,2.886629903,2.322137928,31.2173247,0.717,0.116,0.092,0.074,31.995,37.931,-18.005,-9.369
10703,8.63333,1692.467,1445.367,361.9333,129.9,0.045765145,18.90672565,3.741227069,3.245291763,2.338942664,28.23218715,0.67,0.133,0.115,0.083,36.059,37.931,-13.941,-9.369
10712,10.43333,1392.667,1450.4,427.1333,134.0667,0.055306916,15.55762853,3.754254622,3.829910595,2.413967086,25.55576084,0.609,0.147,0.15,0.094,40.631,37.931,-9.369,-9.369
10721,12.23333,1142.467,1444.233,480,136.7,0.064848688,12.7626182,3.738291793,4.303942318,2.461381541,23.26623385,0.549,0.161,0.185,0.106,45.203,37.931,-4.797,-9.369
10730,6.46667,960.1334,1453.4,564.8666,134.5333,0.034279715,10.72575051,3.762019904,5.064902633,2.422368553,21.9750416,0.488,0.171,0.23,0.11,49.775,37.931,-0.225,-9.369
10739,13.70046,803.2267,1458.915,666.6889,135.9379,0.07262592,8.97292937,3.776295079,5.977897021,2.447659384,21.17478085,0.424,0.178,0.282,0.116,54.347,37.931,4.347,-9.369
10748,8.63333,680.5,1435.7,790.3666,135.8,0.045765145,7.601936584,3.716204744,7.086858868,2.445176395,20.85017659,0.365,0.178,0.34,0.117,58.919,37.931,8.919,-9.369
10757,10.93333,558.1,1352.1,930.8,130.1,0.057957408,6.234593398,3.499812241,8.346061479,2.342543807,20.42301093,0.305,0.171,0.409,0.115,63.491,37.931,13.491,-9.369
10765,10.8,486.5333,1282.733,1043.1,125.7,0.057250628,5.435114317,3.320260821,9.353004651,2.263318652,20.37169844,0.267,0.163,0.459,0.111,67.555,37.931,17.555,-9.369
10774,6.8,398.2333,1168.267,1160.767,113.6667,0.036046692,4.448705793,3.023973928,10.40807128,2.046650455,19.92740145,0.223,0.152,0.522,0.103,72.127,37.931,22.127,-9.369
10783,9.9,331,1072.067,1356.8,102,0.052479742,3.697635576,2.774967244,12.16581029,1.836583154,20.47499626,0.181,0.136,0.594,0.09,76.699,37.931,26.699,-9.369
10792,7.23333,275.1667,981.4,1574.433,92.66666,0.038343767,3.073915949,2.540282327,14.1172267,1.668529674,21.39995465,0.144,0.119,0.66,0.078,81.271,37.931,31.271,-9.369
10801,5.06667,227.3333,879.5,1840.533,86.43333,0.026858337,2.539564041,2.276521608,16.50322472,1.556294096,22.87560447,0.111,0.1,0.721,0.068,85.843,37.931,35.843,-9.369
10810,6.46667,185.1333,797.5333,2123.033,77.76667,0.034279715,2.068143433,2.064356783,19.03627411,1.400244667,24.56901899,0.084,0.084,0.775,0.057,90.415,37.931,40.415,-9.369
12315,5.06667,4516.733,794.9667,135.7667,87.2,0.026858337,50.45689615,2.057713326,1.217358428,1.57009854,55.30206645,0.912,0.037,0.022,0.028,9.135,42.503,-40.865,-4.797
12324,6.36667,3810.367,851.8666,160.6333,95.9,0.033749616,42.56600778,2.204994568,1.440325953,1.726748279,47.93807658,0.888,0.046,0.03,0.036,13.707,42.503,-36.293,-4.797
12333,6.83333,3270.167,934.5667,183.7333,103.6667,0.036223374,36.53137715,2.419057745,1.647453177,1.866593283,42.46448136,0.86,0.057,0.039,0.044,18.279,42.503,-31.721,-4.797
12342,5.76667,2806,1007.833,219.5,116.2,0.030569026,31.34611911,2.608702219,1.968156956,2.092264338,38.01524262,0.825,0.069,0.052,0.055,22.851,42.503,-27.149,-4.797
12351,8.7,2423.2,1120.967,265.8,125.9667,0.046118561,27.06982032,2.901541327,2.383308059,2.268120776,34.62279049,0.782,0.084,0.069,0.066,27.423,42.503,-22.577,-4.797
12360,8.53333,2084.533,1206.533,316.9667,141.4333,0.045235046,23.28653589,3.123022678,2.842096653,2.546608002,31.79826322,0.732,0.098,0.089,0.08,31.995,42.503,-18.005,-4.797
12368,11.53333,1799.9,1280.967,364.8667,143.4333,0.061137999,20.10687092,3.315689659,3.271594231,2.582619436,29.27677424,0.687,0.113,0.112,0.088,36.059,42.503,-13.941,-4.797
12377,12.7,1492.667,1309.433,436.0667,151.5,0.067322498,16.67473898,3.389371824,3.910012341,2.727866155,26.7019893,0.624,0.127,0.146,0.102,40.631,42.503,-9.369,-4.797
12386,5.3,1229.333,1320.833,508.7333,155.2333,0.028095216,13.73300736,3.418879892,4.561580789,2.795086899,24.50855494,0.56,0.139,0.186,0.114,45.203,42.503,-4.797,-4.797
12395,10.5,1009.6,1303.933,608.6,149.8667,0.055660333,11.27834706,3.375135475,5.457040198,2.698457418,22.80898015,0.494,0.148,0.239,0.118,49.775,42.503,-0.225,-4.797
12404,8.63333,842.1,1300.8,705.0667,148.9,0.045765145,9.407187065,3.367025933,6.322013349,2.681051291,21.77727764,0.432,0.155,0.29,0.123,54.347,42.503,4.347,-4.797
12413,8.03333,694.3666,1255.1,820.9667,143.3333,0.042584554,7.756841821,3.248734816,7.361236088,2.580818865,20.94763159,0.37,0.155,0.351,0.123,58.919,42.503,8.919,-4.797
12422,9.96667,569.9333,1173.733,940.3666,138.7333,0.052833159,6.366784429,3.03812227,8.431840843,2.497992566,20.33474011,0.313,0.149,0.415,0.123,63.491,42.503,13.491,-4.797
12430,6.1,479.0333,1109.067,1057.067,132.4333,0.032336003,5.351331033,2.870739045,9.478240406,2.384556547,20.08486703,0.266,0.143,0.472,0.119,67.555,42.503,17.555,-4.797
12439,12.93333,403.7333,1016.533,1187.6,121.2333,0.068559376,4.510146868,2.631221535,10.64867062,2.182892515,19.97293154,0.226,0.132,0.533,0.109,72.127,42.503,22.127,-4.797
12448,13.2,337.9333,932.7667,1363.133,112.6,0.06997299,3.775088194,2.414398576,12.22259543,2.027443756,20.43952595,0.185,0.118,0.598,0.099,76.699,42.503,26.699,-4.797
12457,6.93333,275.8667,858.2,1614.867,99.86667,0.036753472,3.081735722,2.221388112,14.47978004,1.798171017,21.58107489,0.143,0.103,0.671,0.083,81.271,42.503,31.271,-4.797
12466,5.56667,229.3333,787.7667,1903.9,85.86667,0.029508829,2.56190625,2.039076651,17.07140788,1.546090977,23.21848175,0.11,0.088,0.735,0.067,85.843,42.503,35.843,-4.797
12475,7.5,188.3,722,2243.767,76.86667,0.039757381,2.10351897,1.868844345,20.11884113,1.384039522,25.47524397,0.083,0.073,0.79,0.054,90.415,42.503,40.415,-4.797
13980,125.0667,4580.233,700.5,120.2,89.03333,0.662976585,51.16626129,1.813193163,1.077778889,1.603108961,55.6603423,0.919,0.033,0.019,0.029,9.135,47.075,-40.865,-0.225
13982,71.4,4439.667,714.9667,138.0667,93.13333,0.378490263,49.59598382,1.85063916,1.237981485,1.676932402,54.36153687,0.912,0.034,0.023,0.031,10.151,47.075,-39.849,-0.225
13989,5.8,3918.067,765.3,144.1667,95.43333,0.030745708,43.76913573,1.980923237,1.292677419,1.718345551,48.76108194,0.898,0.041,0.027,0.035,13.707,47.075,-36.293,-0.225
13998,7.16667,3319.033,823.0667,177,113.3333,0.037990404,37.07726434,2.130448127,1.58707873,2.040647349,42.83543855,0.866,0.05,0.037,0.048,18.279,47.075,-31.721,-0.225
14007,9.53333,2809.766,889.1,203.2667,124.5,0.050536031,31.38818949,2.301370508,1.822600317,2.241711791,37.75387211,0.831,0.061,0.048,0.059,22.851,47.075,-27.149,-0.225
14016,9.53333,2430.667,959.0333,248.1667,136.8,0.050536031,27.15323496,2.482387755,2.225198255,2.463182113,34.32400308,0.791,0.072,0.065,0.072,27.423,47.075,-22.577,-0.225
14025,6.8,2086.4,1042.8,308.4,141.0333,0.036046692,23.30739234,2.699211749,2.76528294,2.539405715,31.31129275,0.744,0.086,0.088,0.081,31.995,47.075,-18.005,-0.225
14033,6.96667,1825.2,1122.933,356.1,147.6,0.036930207,20.38949986,2.906630175,3.192987208,2.657643858,29.1467611,0.7,0.1,0.11,0.091,36.059,47.075,-13.941,-0.225
14042,7.83333,1559.567,1181.633,450.4667,163.3667,0.041524358,17.42208587,3.058570844,4.039130611,2.9415346,27.46132192,0.634,0.111,0.147,0.107,40.631,47.075,-9.369,-0.225
14051,11.93333,1266.033,1203.267,524.9667,161.6667,0.063258392,14.14298689,3.114568875,4.707138325,2.91092488,24.87561897,0.569,0.125,0.189,0.117,45.203,47.075,-4.797,-0.225
14060,114.1333,1048.933,1193.433,627,164.2333,0.605018806,11.71774011,3.089114284,5.622024654,2.957138354,23.3860174,0.501,0.132,0.24,0.126,49.775,47.075,-0.225,-0.225
14069,5.9,863.1334,1168.233,723.9,158.7,0.031275806,9.642153373,3.023885921,6.490883009,2.857507319,22.01442962,0.438,0.137,0.295,0.13,54.347,47.075,4.347,-0.225
14078,9.63333,705.6,1102.5,822.3666,153.4,0.051066129,7.882331306,2.853740845,7.373788356,2.762077018,20.87193753,0.378,0.137,0.353,0.132,58.919,47.075,8.919,-0.225
14087,8.8,566.6,1012.167,925.4667,141.3,0.04664866,6.329547786,2.619920462,8.298240197,2.54420784,19.79191629,0.32,0.132,0.419,0.129,63.491,47.075,13.491,-0.225
14095,6.8,491.8667,951.1667,1025.6,130.9667,0.036046692,5.494694285,2.462025634,9.196090087,2.358149362,19.51095937,0.282,0.126,0.471,0.121,67.555,47.075,17.555,-0.225
14104,6.73333,411.2333,877.2667,1182.667,128.2,0.035693275,4.593930151,2.270740874,10.60443865,2.308332945,19.77744262,0.232,0.115,0.536,0.117,72.127,47.075,22.127,-0.225
14113,9.26667,335.8,814.6,1376.133,118.0667,0.04912247,3.751256877,2.108532691,12.33916053,2.125875611,20.32482571,0.185,0.104,0.607,0.105,76.699,47.075,26.699,-0.225
14122,6.6,277.6667,758.8666,1634,101.5667,0.034986495,3.10184371,1.96427085,14.65133698,1.828781277,21.54623281,0.144,0.091,0.68,0.085,81.271,47.075,31.271,-0.225
14131,7.73333,233.9667,702.1334,1944.167,91,0.040994259,2.613666446,1.817421099,17.4324638,1.638520265,23.50207161,0.111,0.077,0.742,0.07,85.843,47.075,35.843,-0.225
14139,95.46667,191.1,652.1,2258.8,78.33334,0.506067298,2.134798062,1.687913292,20.25363523,1.410447967,25.48679455,0.084,0.066,0.795,0.055,89.907,47.075,39.907,-0.225
14140,40.23333,186.5333,646.0667,2288.933,79.6,0.213276242,2.083782979,1.672296535,20.52382417,1.433255089,25.71315878,0.081,0.065,0.798,0.056,90.415,47.075,40.415,-0.225
15645,7.8,4478.567,624.6,126.5333,94.03333,0.041347676,50.03053978,1.616731548,1.134566718,1.693137547,54.47497559,0.918,0.03,0.021,0.031,9.135,51.647,-40.865,4.347
15654,9.66667,3841,666.2333,149.9667,106.7,0.051242864,42.90821223,1.724496309,1.344683389,1.921210025,47.89860195,0.896,0.036,0.028,0.04,13.707,51.647,-36.293,4.347
15663,5.7,3276.2,726.1667,167.2667,113.5333,0.030215609,36.59877243,1.879629544,1.499804643,2.044248492,42.02245511,0.871,0.045,0.036,0.049,18.279,51.647,-31.721,4.347
15672,9.4,2769.833,765.3333,205.4667,126.3333,0.04982925,30.94209378,1.981009431,1.842326719,2.274721672,37.0401516,0.835,0.053,0.05,0.061,22.851,51.647,-27.149,4.347
15681,8.6,2392.933,840.7667,251.1667,138.6333,0.045588463,26.73170451,2.176263286,2.252097894,2.496191994,33.65625768,0.794,0.065,0.067,0.074,27.423,51.647,-22.577,4.347
15690,9.96667,2075,909.3,300.7667,143.4667,0.052833159,23.18004175,2.353656735,2.6968386,2.583220827,30.81375791,0.752,0.076,0.088,0.084,31.995,51.647,-18.005,4.347
15698,9.26698,1832.628,981.4994,351.9784,156.3052,0.049124113,20.47247882,2.540539616,3.156030689,2.814387228,28.98343636,0.706,0.088,0.109,0.097,36.059,51.647,-13.941,4.347
15707,6.5,1484.967,990.8333,417.4,161.7667,0.034456396,16.58872147,2.564699736,3.742636508,2.912725452,25.80878317,0.643,0.099,0.145,0.113,40.631,51.647,-9.369,4.347
15716,10.46667,1298.433,1083.3,535.0667,173.2667,0.055483651,14.50493068,2.804043045,4.797700444,3.1197912,25.22646536,0.575,0.111,0.19,0.124,45.203,51.647,-4.797,4.347
15725,9.1,1074.7,1075.433,638.0667,169.5333,0.048238955,12.00558596,2.783679889,5.721254734,3.052568655,23.56308924,0.51,0.118,0.243,0.13,49.775,51.647,-0.225,4.347
15734,8.93333,860.8333,1036.333,745.6,162.2333,0.04735544,9.616458716,2.682472391,6.685457068,2.92112692,21.90551509,0.439,0.122,0.305,0.133,54.347,51.647,4.347,4.347
15743,8.9,699.6667,952.1,817.9,152.5667,0.047178758,7.816049792,2.464441413,7.33373838,2.747072854,20.36130244,0.384,0.121,0.36,0.135,58.919,51.647,8.919,4.347
15752,9.13333,573.5,891.4333,911.2667,144.4333,0.048415637,6.406628407,2.307410085,8.170915237,2.600625154,19.48557888,0.329,0.118,0.419,0.133,63.491,51.647,13.491,4.347
15760,6.6,481.9333,830.2333,1011.033,135.1667,0.034986495,5.383727236,2.148998348,9.065474404,2.433773375,19.03197336,0.283,0.113,0.476,0.128,67.555,51.647,17.555,4.347
15769,9.36667,403.5667,771.9667,1171.267,132.3,0.049652569,4.508285762,1.998179503,10.50222002,2.382156385,19.39084167,0.232,0.103,0.542,0.123,72.127,51.647,22.127,4.347
15778,10.03333,331.5667,715.3333,1375.7,119.4667,0.053186523,3.703966241,1.851588078,12.33527802,2.151083615,20.04191595,0.185,0.092,0.615,0.107,76.699,51.647,26.699,4.347
15787,8.3,280.2667,666.5,1609.833,103.4333,0.043998168,3.130888582,1.725186642,14.43464245,1.862390749,21.15310842,0.148,0.082,0.682,0.088,81.271,51.647,31.271,4.347
15796,8.03333,228.5333,622.0667,1906.333,94.8,0.042584554,2.552969367,1.610174286,17.09322348,1.70694199,22.96330913,0.111,0.07,0.744,0.074,85.843,51.647,35.843,4.347
15805,6.86667,187.5667,573.4667,2245.433,84.46667,0.036400108,2.095327199,1.48437673,20.1337794,1.520882973,25.2343663,0.083,0.059,0.798,0.06,90.415,51.647,40.415,4.347
17310,4.46667,4233.8,550.5667,114.9,98.36667,0.023677747,47.29622206,1.42510175,1.030256192,1.771162442,51.52274244,0.918,0.028,0.02,0.034,9.135,56.219,-40.865,8.919
17319,7.7,3663.667,598.7333,138.0333,108.1333,0.040817577,40.92720676,1.549777481,1.237682003,1.947017619,45.66168386,0.896,0.034,0.027,0.043,13.707,56.219,-36.293,8.919
17328,7.83333,3152.767,636.4667,166.8333,122.0667,0.041524358,35.21988949,1.647447635,1.495918542,2.197898479,40.56115415,0.868,0.041,0.037,0.054,18.279,56.219,-31.721,8.919
17337,5.83333,2665.5,687.2667,202.5667,127.2667,0.030922389,29.77657893,1.778939731,1.816323734,2.291528209,35.66337061,0.835,0.05,0.051,0.064,22.851,56.219,-27.149,8.919
17346,7.33333,2343.167,733.8,238.6667,137.5667,0.038873866,26.17576332,1.899387784,2.140016063,2.476987096,32.69215426,0.801,0.058,0.065,0.076,27.423,56.219,-22.577,8.919
17355,6.93333,2008.067,804.0667,298.6333,150.0333,0.036753472,22.43232622,2.081268012,2.67770937,2.70145717,29.89276077,0.75,0.07,0.09,0.09,31.995,56.219,-18.005,8.919
17363,9.16667,1777.033,859.9667,350.5,160.8,0.048592372,19.85142127,2.225961086,3.142774547,2.895319325,28.11547623,0.706,0.079,0.112,0.103,36.059,56.219,-13.941,8.919
17372,5.23333,1549.467,931.2,435.5333,170.1,0.027741799,17.30925771,2.410343288,3.905229585,3.062772495,26.68760308,0.649,0.09,0.146,0.115,40.631,56.219,-9.369,8.919
17381,7.83333,1294.2,980.5667,532.8666,179.6667,0.041524358,14.45764339,2.53812539,4.777973145,3.23502779,25.00876972,0.578,0.101,0.191,0.129,45.203,56.219,-4.797,8.919
17390,11.2,1050.6,968.7,639.9,177.1,0.059371022,11.73636234,2.507409303,5.737693103,3.188812516,23.17027727,0.507,0.108,0.248,0.138,49.775,56.219,-0.225,8.919
17399,8.36667,855.9667,926.6667,718.2667,172.6667,0.044351584,9.562093419,2.398609171,6.440371763,3.10898777,21.51006212,0.445,0.112,0.299,0.145,54.347,56.219,4.347,8.919
17408,8.4,675.9333,857.4,795.5667,158.7667,0.044528266,7.550921501,2.21931737,7.133485807,2.858708301,19.76243298,0.382,0.112,0.361,0.145,58.919,56.219,8.919,8.919
17417,8.96667,566.9,784.1334,899.5,148.4,0.047532175,6.332899118,2.029672119,8.065408574,2.672048432,19.10002824,0.332,0.106,0.422,0.14,63.491,56.219,13.491,8.919
17425,5.93333,474.4,734.3333,989.8333,145.4667,0.031452488,5.299571955,1.900768192,8.875386309,2.619232262,18.69495872,0.283,0.102,0.475,0.14,67.555,56.219,17.555,8.919
17434,6.46667,397.6,694.2,1139.233,131.5,0.034279715,4.441631133,1.796886072,10.21498567,2.367751811,18.82125468,0.236,0.095,0.543,0.126,72.127,56.219,22.127,8.919
17443,6.9,335.4667,634.4667,1338.433,122.9,0.03657679,3.747533548,1.642270781,12.00112173,2.212902644,19.6038287,0.191,0.084,0.612,0.113,76.699,56.219,26.699,8.919
17452,5.66667,278.5,604.5667,1556,110.5667,0.030038927,3.111152592,1.564876812,13.95194635,1.990832732,20.61880848,0.151,0.076,0.677,0.097,81.271,56.219,31.271,8.919
17461,6.96667,220.8,547.8333,1839.9,100.9667,0.036930207,2.466579864,1.418026544,16.4975489,1.817977847,22.20013315,0.111,0.064,0.743,0.082,85.843,56.219,35.843,8.919
17470,6.96667,185.5333,516.2333,2137.333,85.63333,0.036930207,2.072611875,1.336232248,19.16449572,1.541889523,24.11522937,0.086,0.055,0.795,0.064,90.415,56.219,40.415,8.919
18975,7.63333,3884.6,491.9,122.8667,98.6,0.040464161,43.39527238,1.273247276,1.101689978,1.775363716,47.54557335,0.913,0.027,0.023,0.037,9.135,60.791,-40.865,13.491
18984,6,3388.9,525.4667,143.9,109.8667,0.031805904,37.8577559,1.360132231,1.290286041,1.97822873,42.4864029,0.891,0.032,0.03,0.047,13.707,60.791,-36.293,13.491
18993,6.56667,2956.733,564.3666,166.8333,117.7333,0.034809813,33.0299732,1.460821785,1.495918542,2.119872505,38.10658603,0.867,0.038,0.039,0.056,18.279,60.791,-31.721,13.491
19002,8.7,2548.667,611.8333,194.6667,131.9,0.046118561,28.47142529,1.583685876,1.745488017,2.374954098,34.17555328,0.833,0.046,0.051,0.069,22.851,60.791,-27.149,13.491
19011,8,2207.167,639.5333,225.5,141,0.042407873,24.65649311,1.655385306,2.021956235,2.538806125,30.87264078,0.799,0.054,0.065,0.082,27.423,60.791,-22.577,13.491
19020,8.13333,1941.2,708.4333,282.3,155.8,0.043114653,21.68534798,1.833727931,2.531256076,2.805290739,28.85562272,0.752,0.064,0.088,0.097,31.995,60.791,-18.005,13.491
19028,10.6,1719.233,760.2333,330,161.6,0.056190431,19.20573143,1.967808453,2.958960344,2.909723899,27.04222413,0.71,0.073,0.109,0.108,36.059,60.791,-13.941,13.491
19037,7.66667,1478.233,836.5333,421.3,171.5,0.040640896,16.51349526,2.165305439,3.777606039,3.087980499,25.54438723,0.646,0.085,0.148,0.121,40.631,60.791,-9.369,13.491
19046,5.93333,1263.633,879.3333,509.9333,178.6667,0.031452488,14.11617624,2.276090117,4.572340645,3.217022073,24.18162908,0.584,0.094,0.189,0.133,45.203,60.791,-4.797,13.491
19055,9.43333,1026.567,859.8333,618.6,174,0.050005932,11.46788719,2.225615789,5.546705663,3.132994792,22.37320344,0.513,0.099,0.248,0.14,49.775,60.791,-0.225,13.491
19064,10.30034,836.5279,818.5939,700.0233,167.4389,0.054601938,9.344940553,2.11887061,6.276791468,3.014857481,20.75546011,0.45,0.102,0.302,0.145,54.347,60.791,4.347,13.491
19073,7.13333,675.5,747.5667,763.2,157.7667,0.037813669,7.546081062,1.935021883,6.843268286,2.840702583,19.16507381,0.394,0.101,0.357,0.148,58.919,60.791,8.919,13.491
19082,7.43333,552.8333,697.9333,851.2667,149.1333,0.039403964,6.175758542,1.806549447,7.632922447,2.685252025,18.30048246,0.337,0.099,0.417,0.147,63.491,60.791,13.491,13.491
19090,6.03333,464.7667,652.7,949.4333,145.7333,0.031982586,5.191957355,1.689466349,8.51313783,2.624032586,18.01859412,0.288,0.094,0.472,0.146,67.555,60.791,17.555,13.491
19099,7.06667,393.2,607.2667,1100.7,134.8333,0.037460305,4.392478273,1.571865565,9.869477729,2.427770269,18.26159184,0.241,0.086,0.54,0.133,72.127,60.791,22.127,13.491
19108,6.1,328.2667,581.4667,1267.067,123.4,0.032336003,3.667101596,1.505084147,11.36121517,2.221905502,18.75530641,0.196,0.08,0.606,0.118,76.699,60.791,26.699,13.491
19117,7.96667,271.2667,532.4,1465.767,116.4,0.042231191,3.030348642,1.378078572,13.14286796,2.095865482,19.64716065,0.154,0.07,0.669,0.107,81.271,60.791,31.271,13.491
19126,9.13333,216.1,494.7333,1714.633,102.5,0.048415637,2.414075674,1.280581066,15.37433652,1.845586013,20.91457927,0.115,0.061,0.735,0.088,85.843,60.791,35.843,13.491
19135,4.16667,183.6,447.1667,1927.167,91.06667,0.022087451,2.051014779,1.157458391,17.28003251,1.639720706,22.12822639,0.093,0.052,0.781,0.074,90.415,60.791,40.415,13.491
20443,8,3104.767,473.2,142.2,112.5333,0.042407873,34.68367648,1.22484369,1.275042912,2.026242775,39.20980585,0.885,0.031,0.033,0.052,13.707,64.855,-36.293,17.555
20452,8.9,2741.033,509.4,161.5,121.0333,0.047178758,30.62036597,1.318544749,1.448097259,2.179291371,35.56629935,0.861,0.037,0.041,0.061,18.279,64.855,-31.721,17.555
20461,7.83333,2402.4,543.3,184.6,136.1667,0.041524358,26.83746135,1.406292427,1.655224483,2.451779092,32.35075735,0.83,0.043,0.051,0.076,22.851,64.855,-27.149,17.555
20470,6.63333,2104.467,584,223.9667,143.3,0.035163177,23.50922069,1.511641409,2.008207829,2.580219274,29.6092892,0.794,0.051,0.068,0.087,27.423,64.855,-22.577,17.555
20479,5.5,1845.033,633.3333,270.3,153.1667,0.029155412,20.61105637,1.639337058,2.423657518,2.757876284,27.43192723,0.751,0.06,0.088,0.101,31.995,64.855,-18.005,17.555
20487,7.1,1631.367,693,327.7333,163.1333,0.037636987,18.22417117,1.79377996,2.938635873,2.937332065,25.89391907,0.704,0.069,0.113,0.113,36.059,64.855,-13.941,17.555
20496,6.9,1416.1,744.4,413.3333,174.9333,0.03657679,15.81940102,1.926825111,3.706172253,3.149799528,24.60219792,0.643,0.078,0.151,0.128,40.631,64.855,-9.369,17.555
20505,7.96667,1220.067,795.5667,515.1667,180.9,0.042231191,13.6294959,2.059266382,4.619266169,3.257234241,23.5652627,0.578,0.087,0.196,0.138,45.203,64.855,-4.797,17.555
20514,7.96667,1001.9,794.0667,602.1,178.1,0.042231191,11.19232956,2.055383742,5.398757646,3.206818233,21.85328918,0.512,0.094,0.247,0.147,49.775,64.855,-0.225,17.555
20523,6.53333,808.5667,749.9667,673.4667,171.6,0.034633078,9.032583067,1.941234108,6.03867048,3.089781071,20.10226873,0.449,0.097,0.3,0.154,54.347,64.855,4.347,17.555
20532,8.56667,657,673.5667,745.1,161.6333,0.045411781,7.339415629,1.74347828,6.680973795,2.910323489,18.67419119,0.393,0.093,0.358,0.156,58.919,64.855,8.919,17.555
20541,8.03333,538.4333,625.3333,812.8,152,0.042584554,6.014894638,1.618629642,7.288008993,2.736869014,17.65840229,0.341,0.092,0.413,0.155,63.491,64.855,13.491,17.555
20549,9.76667,464.3,589.3666,923.9333,149.6333,0.051772962,5.1867438,1.525532462,8.284490894,2.694254883,17.69102204,0.293,0.086,0.468,0.152,67.555,64.855,17.555,17.555
20558,7.9,385.0667,550.9,1036.033,137.7667,0.041877774,4.301620329,1.425964473,9.289638067,2.480588239,17.49781111,0.246,0.081,0.531,0.142,72.127,64.855,22.127,17.555
20567,6.96667,318.9667,512.4666,1182.7,131.0667,0.036930207,3.563210325,1.32648242,10.60473454,2.359949934,17.85437722,0.2,0.074,0.594,0.132,76.699,64.855,26.699,17.555
20576,8.36667,269.7667,483,1357.367,116.3333,0.044351584,3.013591985,1.250210275,12.17089432,2.0946645,18.52936108,0.163,0.067,0.657,0.113,81.271,64.855,31.271,17.555
20585,7.33333,225.2667,451.1667,1570.7,107.7667,0.038873866,2.516477837,1.167812099,14.08375458,1.940416724,19.70846124,0.128,0.059,0.715,0.098,85.843,64.855,35.843,17.555
22026,4.9,2732.567,423.3,127.1,119.6333,0.025974822,30.5257914,1.095681179,1.13964806,2.154083367,34.915204,0.874,0.031,0.033,0.062,13.707,69.427,-36.293,22.127
22035,4.33333,2484.2,455.8,152,128.3333,0.022970913,27.7512577,1.179805059,1.362915068,2.310733107,32.60471093,0.851,0.036,0.042,0.071,18.279,69.427,-31.721,22.127
22044,6.8,2193.3,485.7333,174.1667,135.3333,0.036046692,24.50158341,1.257285223,1.561673814,2.436773127,29.75731557,0.823,0.042,0.052,0.082,22.851,69.427,-27.149,22.127
22053,7,1923.067,520.8667,226.8,147.6,0.037106889,21.48278234,1.348225466,2.033612745,2.657643858,27.52226441,0.781,0.049,0.074,0.097,27.423,69.427,-22.577,22.127
22062,4.46667,1716.533,562.2,263.2667,154.2,0.023677747,19.17556945,1.455213699,2.360593107,2.776481592,25.76785785,0.744,0.056,0.092,0.108,31.995,69.427,-18.005,22.127
22070,8.13333,1534.1,611.2,313.1,165.4,0.043114653,17.13759135,1.582046625,2.807425708,2.978145624,24.50520931,0.699,0.065,0.115,0.122,36.059,69.427,-13.941,22.127
22079,6.83333,1347.267,660.5667,394.7667,173.2,0.036223374,15.05046039,1.709828728,3.539693971,3.118590219,23.41857331,0.643,0.073,0.151,0.133,40.631,69.427,-9.369,22.127
22088,9.03333,1168.7,706.2667,477.2333,181.3333,0.047885538,13.05566978,1.828119845,4.279134574,3.265036118,22.42796032,0.582,0.082,0.191,0.146,45.203,69.427,-4.797,22.127
22097,10.1,968.4,700.1334,574,183.1333,0.053539939,10.81809756,1.812244245,5.146797689,3.297446409,21.0745859,0.513,0.086,0.244,0.156,49.775,69.427,-0.225,22.127
22106,7.66667,785.2333,666.1334,642.0333,169.2667,0.040640896,8.771923219,1.724237725,5.756821437,3.047768331,19.30075071,0.454,0.089,0.298,0.158,54.347,69.427,4.347,22.127
22115,6.96667,634.8,603.7,702.3666,166.3667,0.036930207,7.09141711,1.562633422,6.297802777,2.995551751,17.94740506,0.395,0.087,0.351,0.167,58.919,69.427,8.919,22.127
22124,8.26667,524.3,557.2333,780.2667,156.4333,0.043821486,5.857010068,1.442357758,6.996297645,2.81669376,17.11235923,0.342,0.084,0.409,0.165,63.491,69.427,13.491,22.127
22132,8.6,444.1,530.6,874.4,144.1667,0.045588463,4.96108749,1.373419403,7.840348257,2.595824829,16.77067998,0.296,0.082,0.468,0.155,67.555,69.427,17.555,22.127
22141,7.46667,371.9,492.3667,973.9667,139.4,0.039580699,4.154533748,1.274455295,8.733117702,2.509996977,16.67210372,0.249,0.076,0.524,0.151,72.127,69.427,22.127,22.127
22150,7.06667,311.1333,461.2,1097.733,129.9667,0.037460305,3.475702595,1.193782565,9.842873986,2.340143645,16.85250279,0.206,0.071,0.584,0.139,76.699,69.427,26.699,22.127
22159,8.93333,257.4667,424.2,1236,118,0.04735544,2.8761874,1.098010763,11.08265147,2.124674629,17.18152426,0.167,0.064,0.645,0.124,81.271,69.427,31.271,22.127
22168,8.06667,217.9333,396.4333,1381.233,108.1333,0.042761289,2.434555659,1.026138685,12.38488992,1.947017619,17.79260188,0.137,0.058,0.696,0.109,85.843,69.427,35.843,22.127
23535,6.06667,2177.733,413.7,151.7333,131.5333,0.032159321,24.32768283,1.070832279,1.36052369,2.368351402,29.1273902,0.835,0.037,0.047,0.081,18.279,73.999,-31.721,26.699
23544,6.1,1953.267,447.1667,177.4667,140.8333,0.032336003,21.82014969,1.157458391,1.591263417,2.535804572,27.10467607,0.805,0.043,0.059,0.094,22.851,73.999,-27.149,26.699
23553,8.13333,1758.833,470.6333,211.7333,152.2667,0.043114653,19.64810717,1.218199974,1.898516479,2.741671139,25.50649476,0.77,0.048,0.074,0.107,27.423,73.999,-22.577,26.699
23562,6.66667,1561.433,505.9667,253.1,154.6,0.035339912,17.44293115,1.309657903,2.269432918,2.783683879,23.80570585,0.733,0.055,0.095,0.117,31.995,73.999,-18.005,26.699
23570,8.66667,1413.833,547.6334,299.5333,163.9,0.04594188,15.79407613,1.417509117,2.685779262,2.951137049,22.84850156,0.691,0.062,0.118,0.129,36.059,73.999,-13.941,26.699
23579,8.16667,1265.033,593.5333,372.7667,171.3,0.043291388,14.13181579,1.536317661,3.342429948,3.084379356,22.09494275,0.64,0.07,0.151,0.14,40.631,73.999,-9.369,26.699
23588,7.06667,1092.567,628.3333,460.0333,178.7,0.037460305,12.20518009,1.626394923,4.124909975,3.217621663,21.17410665,0.576,0.077,0.195,0.152,45.203,73.999,-4.797,26.699
23597,7.96667,899.4667,627.9667,536.8333,182.5667,0.042231191,10.04803646,1.625446005,4.813540745,3.28724437,19.77426758,0.508,0.082,0.243,0.166,49.775,73.999,-0.225,26.699
23606,8.13333,744.7333,596.4,602.9667,173.2333,0.043114653,8.319493488,1.543737905,5.406528952,3.119189809,18.38895015,0.452,0.084,0.294,0.17,54.347,73.999,4.347,26.699
23615,7.76667,606.2333,541.2333,660.6334,164.1,0.041170994,6.772295521,1.400942925,5.923600098,2.954738192,17.05157674,0.397,0.082,0.347,0.173,58.919,73.999,8.919,26.699
23624,7.7,506.4667,499.0667,717.4667,156.4333,0.040817577,5.657792411,1.291797756,6.433198525,2.81669376,16.19948245,0.349,0.08,0.397,0.174,63.491,73.999,13.491,26.699
23632,11.6,423.2333,471.1,784.9667,151.1,0.061491415,4.727983405,1.219407993,7.038440414,2.720663869,15.70649568,0.301,0.078,0.448,0.173,67.555,73.999,17.555,26.699
23641,7.6,354.1333,450.2333,886.9333,140.9333,0.040287479,3.956060087,1.165396062,7.952728674,2.537605144,15.61178997,0.253,0.075,0.509,0.163,72.127,73.999,22.127,26.699
23650,6.16667,298.7333,418.6333,1000.533,131.3667,0.032689419,3.3371809,1.083601766,8.971325666,2.365351649,15.75745998,0.212,0.069,0.569,0.15,76.699,73.999,26.699,26.699
23659,7.9,254.7333,388.8,1108.933,123.0667,0.041877774,2.845652303,1.006380445,9.943299306,2.215904197,16.01123625,0.178,0.063,0.621,0.138,81.271,73.999,31.271,26.699
24476,117.9,2041.233,376.9,148.5667,127.7,0.624986023,22.80282707,0.975578163,1.332130223,2.299330086,27.40986554,0.832,0.036,0.049,0.084,17.771,77.047,-32.229,29.747
24602,116.4333,238.3,347.3333,1002.7,124.3,0.617211069,2.662074192,0.899046916,8.990756172,2.238110648,14.78998793,0.18,0.061,0.608,0.151,81.779,77.047,31.779,29.747
24927,105.9,1900.9,362.9667,145.9333,129.7333,0.561374214,21.23515247,0.939512832,1.30851772,2.335941111,25.81912413,0.822,0.036,0.051,0.09,18.279,78.571,-31.721,31.271
24936,7.16667,1744.2,398.7333,174.1667,144.0333,0.037990404,19.4846404,1.032092067,1.561673814,2.593422867,24.67182914,0.79,0.042,0.063,0.105,22.851,78.571,-27.149,31.271
24945,6.63333,1598.433,430.0333,207.3,152.2667,0.035163177,17.85626201,1.113109835,1.858765089,2.741671139,23.56980808,0.758,0.047,0.079,0.116,27.423,78.571,-22.577,31.271
24954,6.43333,1431.767,458.1,241.8333,158.9667,0.03410298,15.99441872,1.185758441,2.168409529,2.862309444,22.21089613,0.72,0.053,0.098,0.129,31.995,78.571,-18.005,31.271
24962,10.2,1306.6,496.4333,295.9333,163.2667,0.054070038,14.59616509,1.284981392,2.653499694,2.939734028,21.4743802,0.68,0.06,0.124,0.137,36.059,78.571,-13.941,31.271
24971,7.66667,1144.6,537.9333,356.5667,173.7667,0.040640896,12.78644616,1.392401116,3.197171895,3.128794059,20.50481323,0.624,0.068,0.156,0.153,40.631,78.571,-9.369,31.271
24980,5.96667,1005.7,561.6,435.7667,179.7,0.031629223,11.23477975,1.453660643,3.907322377,3.23562738,19.83139015,0.567,0.073,0.197,0.163,45.203,78.571,-4.797,31.271
24989,9.43333,848.9667,566,501.1333,178.9667,0.050005932,9.483895688,1.465049722,4.493435036,3.222423788,18.66480423,0.508,0.078,0.241,0.173,49.775,78.571,-0.225,31.271
24998,6.56667,700.2,530.5333,571.1667,169.1667,0.034809813,7.822007342,1.373246755,5.121392773,3.045967759,17.36261463,0.451,0.079,0.295,0.175,54.347,78.571,4.347,31.271
25007,7.86667,580.6,496.5,613.0333,166,0.041701092,6.485943249,1.28515404,5.496791589,2.988949055,16.25683793,0.399,0.079,0.338,0.184,58.919,78.571,8.919,31.271
25016,6.1,485.7,454.6333,677.3333,158.6333,0.032336003,5.425805436,1.176785141,6.073340528,2.856306338,15.53223744,0.349,0.076,0.391,0.184,63.491,78.571,13.491,31.271
25024,7.8,404.9,430.8667,735.5333,149.0333,0.041347676,4.523180195,1.11526703,6.595193534,2.683451453,14.91709221,0.303,0.075,0.442,0.18,67.555,78.571,17.555,31.271
25033,8.5,348.6667,396.5333,814.6334,147.6333,0.045058365,3.894992127,1.026397528,7.304448259,2.658243449,14.88408136,0.262,0.069,0.491,0.179,72.127,78.571,22.127,31.271
25042,6.06667,296.6,372.8667,891.3333,137.7,0.032159321,3.313349582,0.96513826,7.992181479,2.479387258,14.75005658,0.225,0.065,0.542,0.168,76.699,78.571,26.699,31.271
26195,7.96667,1543.4,359.1667,168.4667,143.0667,0.042231191,17.24148262,0.929676809,1.510564499,2.576018541,22.25774247,0.775,0.042,0.068,0.116,22.851,83.143,-27.149,35.843
26204,9.33333,1418.3,388,203.5333,151.8667,0.049475834,15.84397745,1.004309703,1.824990798,2.734468852,21.40774681,0.74,0.047,0.085,0.128,27.423,83.143,-22.577,35.843
26213,5.83333,1308.767,419.2333,229.4667,157.6333,0.030922389,14.62037287,1.085154822,2.057523835,2.838300621,20.60135215,0.71,0.053,0.1,0.138,31.995,83.143,-18.005,35.843
26221,6.56667,1198.033,443.8667,283.3,167.2333,0.034809813,13.38335179,1.148916582,2.540222623,3.011155506,20.0836465,0.666,0.057,0.126,0.15,36.059,83.143,-13.941,35.843
26230,6.26667,1057.367,488.6667,339.6333,170.5667,0.033219518,11.81195721,1.264878115,3.045337776,3.071175764,19.19334886,0.615,0.066,0.159,0.16,40.631,83.143,-9.369,35.843
26239,7.7,936.2667,507.3667,407.6333,175.3,0.040817577,10.45913311,1.313281701,3.655062938,3.156402225,18.58387997,0.563,0.071,0.197,0.17,45.203,83.143,-4.797,35.843
26248,7.7,791.9333,512.3333,476.3333,176.8,0.040817577,8.846769619,1.326137383,4.271064682,3.183410801,17.62738248,0.502,0.075,0.242,0.181,49.775,83.143,-0.225,35.843
26257,7.46667,664.8666,482.6,522,168.3,0.039580699,7.42729424,1.249174904,4.680537271,3.030362204,16.38736862,0.453,0.076,0.286,0.185,54.347,83.143,4.347,35.843
26266,7.83333,549.1,448.1,574.6334,166.6333,0.041524358,6.134053458,1.15987417,5.1524771,3.000352075,15.4467568,0.397,0.075,0.334,0.194,58.919,83.143,8.919,35.843
26275,7.5,458.0333,408.9,614.5333,162.0667,0.039757381,5.11673784,1.058407829,5.510241408,2.918127167,14.60351424,0.35,0.072,0.377,0.2,63.491,83.143,13.491,35.843
26283,6.93333,395.9667,384.5,664.6334,154.9667,0.036753472,4.423385368,0.995250208,5.959466284,2.790286575,14.16838844,0.312,0.07,0.421,0.197,67.555,83.143,17.555,35.843
26292,6.26667,332.2667,358.1333,738.1334,144.4,0.033219518,3.711786014,0.927001928,6.618507452,2.600025563,13.85732096,0.268,0.067,0.478,0.188,72.127,83.143,22.127,35.843
27218,129.7667,734.0333,465.6333,440.2,170.8,0.68789121,8.19996267,1.205257838,3.947073768,3.075376497,16.42767077,0.499,0.073,0.24,0.187,49.775,87.207,-0.225,39.907
27292,7.1,1176.467,392.6,234.3333,159.3,0.037636987,13.14243575,1.016216468,2.10116043,2.86831075,19.1281234,0.687,0.053,0.11,0.15,31.995,87.715,-18.005,40.415
27300,8.7,1081.133,405.6,256.7333,165.2667,0.046118561,12.07744968,1.04986602,2.302011072,2.975745462,18.40507223,0.656,0.057,0.125,0.162,36.059,87.715,-13.941,40.415
27309,7.5,984.8333,447.9667,316.0333,171.7,0.039757381,11.00167567,1.159529133,2.833727279,3.091581643,18.08651372,0.608,0.064,0.157,0.171,40.631,87.715,-9.369,40.415
27318,8.96667,855.9333,468.1333,381,173.6667,0.047532175,9.561720304,1.211728906,3.416254215,3.126993487,17.31669691,0.552,0.07,0.197,0.181,45.203,87.715,-4.797,40.415
27327,190.6,746.6,453.5,450.2,167.7,1.010367565,8.340346589,1.173851676,4.036739233,3.019558774,16.57049627,0.503,0.071,0.244,0.182,49.775,87.715,-0.225,40.415
27336,7.6,625.7333,438.2333,492.2333,174.3,0.040287479,6.990132058,1.134334937,4.413632772,3.138396508,15.67649627,0.446,0.072,0.282,0.2,54.347,87.715,4.347,40.415
27345,7.63333,523.2,409.0667,522.4,168.8667,0.040464161,5.844721853,1.05883932,4.68412389,3.040566044,14.62825111,0.4,0.072,0.32,0.208,58.919,87.715,8.919,40.415
27354,9.93333,446.4333,383.1333,585.4,155.1,0.052656424,4.987153028,0.991712605,5.249016319,2.792686737,14.02056869,0.356,0.071,0.374,0.199,63.491,87.715,13.491,40.415
27362,6.13333,380.1,365.4,618.4,155.3,0.032512685,4.246136805,0.945811251,5.544912354,2.796287881,13.53314829,0.314,0.07,0.41,0.207,67.555,87.715,17.555,40.415
